{
  "host": "merkur.riemann.cc",
  "revision": "403694a3d2d276e69fa7f5e85d773b42b7d10a43",
  "num_peers": 100,
  "nounce": "03",
  "start_time": "2016-11-29T23:35:54.724Z",
  "connect_peers_time": "2016-11-29T23:35:55.680Z",
  "create_peers_duration": 956,
  "aggregate_time": "2016-11-29T23:36:20.133Z",
  "refresh_buckets_duration": null,
  "connectMessageCount": 12754,
  "disconnect_time": "2016-11-29T23:36:21.126Z",
  "aggregate_duration": 993,
  "totalMessageCount": 14162,
  "aggregationMessageCount": 1408,
  "rootAggregateIDs": {
    "9fd175cc292e337f96221f8127d56f1d914f4598": 100
  },
  "peers": [
    {
      "iD": 0,
      "statistics": {
        "leakedInformation": 2.5111111111111115,
        "receivedInformation": 0.8841099163679808,
        "inbox": 5,
        "outbox": 5
      },
      "rootAggregateID": "9fd175cc292e337f96221f8127d56f1d914f4598",
      "rootAggregateCounter": 100
    },
    {
      "iD": 1,
      "statistics": {
        "leakedInformation": 1.6711469534050178,
        "receivedInformation": 3.586350686350687,
        "inbox": 8,
        "outbox": 5
      },
      "rootAggregateID": "9fd175cc292e337f96221f8127d56f1d914f4598",
      "rootAggregateCounter": 100
    },
    {
      "iD": 2,
      "statistics": {
        "leakedInformation": 1.7447089947089947,
        "receivedInformation": 2.297135955831608,
        "inbox": 8,
        "outbox": 5
      },
      "rootAggregateID": "9fd175cc292e337f96221f8127d56f1d914f4598",
      "rootAggregateCounter": 100
    },
    {
      "iD": 3,
      "statistics": {
        "leakedInformation": 5.166137566137565,
        "receivedInformation": 0.5929512516469038,
        "inbox": 5,
        "outbox": 8
      },
      "rootAggregateID": "9fd175cc292e337f96221f8127d56f1d914f4598",
      "rootAggregateCounter": 100
    },
    {
      "iD": 4,
      "statistics": {
        "leakedInformation": 2.8518518518518525,
        "receivedInformation": 1.741977225672878,
        "inbox": 6,
        "outbox": 10
      },
      "rootAggregateID": "9fd175cc292e337f96221f8127d56f1d914f4598",
      "rootAggregateCounter": 100
    },
    {
      "iD": 5,
      "statistics": {
        "leakedInformation": 2.6884057971014492,
        "receivedInformation": 2.090740740740741,
        "inbox": 7,
        "outbox": 6
      },
      "rootAggregateID": "9fd175cc292e337f96221f8127d56f1d914f4598",
      "rootAggregateCounter": 100
    },
    {
      "iD": 6,
      "statistics": {
        "leakedInformation": 1.7916666666666665,
        "receivedInformation": 3.200310559006211,
        "inbox": 8,
        "outbox": 5
      },
      "rootAggregateID": "9fd175cc292e337f96221f8127d56f1d914f4598",
      "rootAggregateCounter": 100
    },
    {
      "iD": 7,
      "statistics": {
        "leakedInformation": 3.195767195767196,
        "receivedInformation": 0.7693581780538302,
        "inbox": 6,
        "outbox": 7
      },
      "rootAggregateID": "9fd175cc292e337f96221f8127d56f1d914f4598",
      "rootAggregateCounter": 100
    },
    {
      "iD": 8,
      "statistics": {
        "leakedInformation": 1.8328502415458938,
        "receivedInformation": 1.8007765830346476,
        "inbox": 6,
        "outbox": 7
      },
      "rootAggregateID": "9fd175cc292e337f96221f8127d56f1d914f4598",
      "rootAggregateCounter": 100
    },
    {
      "iD": 9,
      "statistics": {
        "leakedInformation": 1.91917502787068,
        "receivedInformation": 2.090740740740741,
        "inbox": 7,
        "outbox": 7
      },
      "rootAggregateID": "9fd175cc292e337f96221f8127d56f1d914f4598",
      "rootAggregateCounter": 100
    },
    {
      "iD": 10,
      "statistics": {
        "leakedInformation": 2.8679653679653674,
        "receivedInformation": 1.2631532718489242,
        "inbox": 5,
        "outbox": 9
      },
      "rootAggregateID": "9fd175cc292e337f96221f8127d56f1d914f4598",
      "rootAggregateCounter": 100
    },
    {
      "iD": 11,
      "statistics": {
        "leakedInformation": 1.892857142857143,
        "receivedInformation": 3.3096179183135703,
        "inbox": 7,
        "outbox": 7
      },
      "rootAggregateID": "9fd175cc292e337f96221f8127d56f1d914f4598",
      "rootAggregateCounter": 100
    },
    {
      "iD": 12,
      "statistics": {
        "leakedInformation": 2.7594035594035597,
        "receivedInformation": 1.486024844720497,
        "inbox": 7,
        "outbox": 9
      },
      "rootAggregateID": "9fd175cc292e337f96221f8127d56f1d914f4598",
      "rootAggregateCounter": 100
    },
    {
      "iD": 13,
      "statistics": {
        "leakedInformation": 1.9166666666666665,
        "receivedInformation": 1.741977225672878,
        "inbox": 6,
        "outbox": 5
      },
      "rootAggregateID": "9fd175cc292e337f96221f8127d56f1d914f4598",
      "rootAggregateCounter": 100
    },
    {
      "iD": 14,
      "statistics": {
        "leakedInformation": 1.5303030303030303,
        "receivedInformation": 3.200310559006211,
        "inbox": 8,
        "outbox": 4
      },
      "rootAggregateID": "9fd175cc292e337f96221f8127d56f1d914f4598",
      "rootAggregateCounter": 100
    },
    {
      "iD": 15,
      "statistics": {
        "leakedInformation": 2.7434782608695656,
        "receivedInformation": 3.6618876941457588,
        "inbox": 7,
        "outbox": 12
      },
      "rootAggregateID": "9fd175cc292e337f96221f8127d56f1d914f4598",
      "rootAggregateCounter": 100
    },
    {
      "iD": 16,
      "statistics": {
        "leakedInformation": 1.745911495911496,
        "receivedInformation": 2.297135955831608,
        "inbox": 8,
        "outbox": 8
      },
      "rootAggregateID": "9fd175cc292e337f96221f8127d56f1d914f4598",
      "rootAggregateCounter": 100
    },
    {
      "iD": 17,
      "statistics": {
        "leakedInformation": 1.4994708994708998,
        "receivedInformation": 2.726284584980237,
        "inbox": 7,
        "outbox": 6
      },
      "rootAggregateID": "9fd175cc292e337f96221f8127d56f1d914f4598",
      "rootAggregateCounter": 100
    },
    {
      "iD": 18,
      "statistics": {
        "leakedInformation": 3.8866459627329193,
        "receivedInformation": 0.9196840196840196,
        "inbox": 6,
        "outbox": 11
      },
      "rootAggregateID": "9fd175cc292e337f96221f8127d56f1d914f4598",
      "rootAggregateCounter": 100
    },
    {
      "iD": 19,
      "statistics": {
        "leakedInformation": 1.943961352657005,
        "receivedInformation": 1.804965404965405,
        "inbox": 7,
        "outbox": 8
      },
      "rootAggregateID": "9fd175cc292e337f96221f8127d56f1d914f4598",
      "rootAggregateCounter": 100
    },
    {
      "iD": 20,
      "statistics": {
        "leakedInformation": 1.7154882154882154,
        "receivedInformation": 1.741977225672878,
        "inbox": 6,
        "outbox": 7
      },
      "rootAggregateID": "9fd175cc292e337f96221f8127d56f1d914f4598",
      "rootAggregateCounter": 100
    },
    {
      "iD": 21,
      "statistics": {
        "leakedInformation": 2.3000000000000003,
        "receivedInformation": 2.1618876941457588,
        "inbox": 6,
        "outbox": 5
      },
      "rootAggregateID": "9fd175cc292e337f96221f8127d56f1d914f4598",
      "rootAggregateCounter": 100
    },
    {
      "iD": 22,
      "statistics": {
        "leakedInformation": 2.300585284280937,
        "receivedInformation": 2.840740740740741,
        "inbox": 8,
        "outbox": 8
      },
      "rootAggregateID": "9fd175cc292e337f96221f8127d56f1d914f4598",
      "rootAggregateCounter": 100
    },
    {
      "iD": 23,
      "statistics": {
        "leakedInformation": 2.545186891961085,
        "receivedInformation": 2.0863506863506864,
        "inbox": 7,
        "outbox": 8
      },
      "rootAggregateID": "9fd175cc292e337f96221f8127d56f1d914f4598",
      "rootAggregateCounter": 100
    },
    {
      "iD": 24,
      "statistics": {
        "leakedInformation": 2.626190476190476,
        "receivedInformation": 1.4066597653554176,
        "inbox": 7,
        "outbox": 8
      },
      "rootAggregateID": "9fd175cc292e337f96221f8127d56f1d914f4598",
      "rootAggregateCounter": 100
    },
    {
      "iD": 25,
      "statistics": {
        "leakedInformation": 3.021043771043771,
        "receivedInformation": 3.4360248447204973,
        "inbox": 8,
        "outbox": 14
      },
      "rootAggregateID": "9fd175cc292e337f96221f8127d56f1d914f4598",
      "rootAggregateCounter": 100
    },
    {
      "iD": 26,
      "statistics": {
        "leakedInformation": 1.9154882154882156,
        "receivedInformation": 2.986024844720497,
        "inbox": 8,
        "outbox": 8
      },
      "rootAggregateID": "9fd175cc292e337f96221f8127d56f1d914f4598",
      "rootAggregateCounter": 100
    },
    {
      "iD": 27,
      "statistics": {
        "leakedInformation": 1.5434782608695654,
        "receivedInformation": 3.6618876941457588,
        "inbox": 7,
        "outbox": 5
      },
      "rootAggregateID": "9fd175cc292e337f96221f8127d56f1d914f4598",
      "rootAggregateCounter": 100
    },
    {
      "iD": 28,
      "statistics": {
        "leakedInformation": 1.9255852842809364,
        "receivedInformation": 2.840740740740741,
        "inbox": 8,
        "outbox": 7
      },
      "rootAggregateID": "9fd175cc292e337f96221f8127d56f1d914f4598",
      "rootAggregateCounter": 100
    },
    {
      "iD": 29,
      "statistics": {
        "leakedInformation": 2.9089186176142707,
        "receivedInformation": 1.2657407407407408,
        "inbox": 6,
        "outbox": 8
      },
      "rootAggregateID": "9fd175cc292e337f96221f8127d56f1d914f4598",
      "rootAggregateCounter": 100
    },
    {
      "iD": 30,
      "statistics": {
        "leakedInformation": 2.3449062858600027,
        "receivedInformation": 1.804965404965405,
        "inbox": 7,
        "outbox": 7
      },
      "rootAggregateID": "9fd175cc292e337f96221f8127d56f1d914f4598",
      "rootAggregateCounter": 100
    },
    {
      "iD": 31,
      "statistics": {
        "leakedInformation": 1.1136363636363635,
        "receivedInformation": 1.7399930986887508,
        "inbox": 7,
        "outbox": 3
      },
      "rootAggregateID": "9fd175cc292e337f96221f8127d56f1d914f4598",
      "rootAggregateCounter": 100
    },
    {
      "iD": 32,
      "statistics": {
        "leakedInformation": 1.8440635451505019,
        "receivedInformation": 1.5074074074074075,
        "inbox": 6,
        "outbox": 8
      },
      "rootAggregateID": "9fd175cc292e337f96221f8127d56f1d914f4598",
      "rootAggregateCounter": 100
    },
    {
      "iD": 33,
      "statistics": {
        "leakedInformation": 3.097065897065897,
        "receivedInformation": 2.985375494071146,
        "inbox": 8,
        "outbox": 13
      },
      "rootAggregateID": "9fd175cc292e337f96221f8127d56f1d914f4598",
      "rootAggregateCounter": 100
    },
    {
      "iD": 34,
      "statistics": {
        "leakedInformation": 1.9351851851851851,
        "receivedInformation": 2.713802622498275,
        "inbox": 8,
        "outbox": 5
      },
      "rootAggregateID": "9fd175cc292e337f96221f8127d56f1d914f4598",
      "rootAggregateCounter": 100
    },
    {
      "iD": 35,
      "statistics": {
        "leakedInformation": 1.8090696587190276,
        "receivedInformation": 2.765740740740741,
        "inbox": 7,
        "outbox": 7
      },
      "rootAggregateID": "9fd175cc292e337f96221f8127d56f1d914f4598",
      "rootAggregateCounter": 100
    },
    {
      "iD": 36,
      "statistics": {
        "leakedInformation": 3.72366220735786,
        "receivedInformation": 1.5074074074074075,
        "inbox": 6,
        "outbox": 9
      },
      "rootAggregateID": "9fd175cc292e337f96221f8127d56f1d914f4598",
      "rootAggregateCounter": 100
    },
    {
      "iD": 37,
      "statistics": {
        "leakedInformation": 2.8777777777777787,
        "receivedInformation": 2.3841099163679806,
        "inbox": 6,
        "outbox": 10
      },
      "rootAggregateID": "9fd175cc292e337f96221f8127d56f1d914f4598",
      "rootAggregateCounter": 100
    },
    {
      "iD": 38,
      "statistics": {
        "leakedInformation": 2.903703703703704,
        "receivedInformation": 2.726284584980237,
        "inbox": 7,
        "outbox": 8
      },
      "rootAggregateID": "9fd175cc292e337f96221f8127d56f1d914f4598",
      "rootAggregateCounter": 100
    },
    {
      "iD": 39,
      "statistics": {
        "leakedInformation": 1.5974754558204771,
        "receivedInformation": 3.586350686350687,
        "inbox": 8,
        "outbox": 6
      },
      "rootAggregateID": "9fd175cc292e337f96221f8127d56f1d914f4598",
      "rootAggregateCounter": 100
    },
    {
      "iD": 40,
      "statistics": {
        "leakedInformation": 1.7212560386473432,
        "receivedInformation": 2.5507765830346476,
        "inbox": 7,
        "outbox": 6
      },
      "rootAggregateID": "9fd175cc292e337f96221f8127d56f1d914f4598",
      "rootAggregateCounter": 100
    },
    {
      "iD": 41,
      "statistics": {
        "leakedInformation": 2.7083333333333335,
        "receivedInformation": 1.5336438923395448,
        "inbox": 6,
        "outbox": 6
      },
      "rootAggregateID": "9fd175cc292e337f96221f8127d56f1d914f4598",
      "rootAggregateCounter": 100
    },
    {
      "iD": 42,
      "statistics": {
        "leakedInformation": 2.5414392059553355,
        "receivedInformation": 1.599074074074074,
        "inbox": 6,
        "outbox": 8
      },
      "rootAggregateID": "9fd175cc292e337f96221f8127d56f1d914f4598",
      "rootAggregateCounter": 100
    },
    {
      "iD": 43,
      "statistics": {
        "leakedInformation": 1.3438552188552189,
        "receivedInformation": 3.3187088274044796,
        "inbox": 8,
        "outbox": 6
      },
      "rootAggregateID": "9fd175cc292e337f96221f8127d56f1d914f4598",
      "rootAggregateCounter": 100
    },
    {
      "iD": 44,
      "statistics": {
        "leakedInformation": 1.75,
        "receivedInformation": 2.297135955831608,
        "inbox": 8,
        "outbox": 3
      },
      "rootAggregateID": "9fd175cc292e337f96221f8127d56f1d914f4598",
      "rootAggregateCounter": 100
    },
    {
      "iD": 45,
      "statistics": {
        "leakedInformation": 1.932258064516129,
        "receivedInformation": 2.765740740740741,
        "inbox": 7,
        "outbox": 5
      },
      "rootAggregateID": "9fd175cc292e337f96221f8127d56f1d914f4598",
      "rootAggregateCounter": 100
    },
    {
      "iD": 46,
      "statistics": {
        "leakedInformation": 2.219336219336219,
        "receivedInformation": 1.8193581780538302,
        "inbox": 7,
        "outbox": 7
      },
      "rootAggregateID": "9fd175cc292e337f96221f8127d56f1d914f4598",
      "rootAggregateCounter": 100
    },
    {
      "iD": 47,
      "statistics": {
        "leakedInformation": 2.1666666666666674,
        "receivedInformation": 2.5507765830346476,
        "inbox": 7,
        "outbox": 9
      },
      "rootAggregateID": "9fd175cc292e337f96221f8127d56f1d914f4598",
      "rootAggregateCounter": 100
    },
    {
      "iD": 48,
      "statistics": {
        "leakedInformation": 2.1375661375661377,
        "receivedInformation": 2.713802622498275,
        "inbox": 8,
        "outbox": 8
      },
      "rootAggregateID": "9fd175cc292e337f96221f8127d56f1d914f4598",
      "rootAggregateCounter": 100
    },
    {
      "iD": 49,
      "statistics": {
        "leakedInformation": 2.651305683563748,
        "receivedInformation": 1.0030173530173532,
        "inbox": 6,
        "outbox": 6
      },
      "rootAggregateID": "9fd175cc292e337f96221f8127d56f1d914f4598",
      "rootAggregateCounter": 100
    },
    {
      "iD": 50,
      "statistics": {
        "leakedInformation": 2.2126482213438736,
        "receivedInformation": 2.971632071632072,
        "inbox": 8,
        "outbox": 7
      },
      "rootAggregateID": "9fd175cc292e337f96221f8127d56f1d914f4598",
      "rootAggregateCounter": 100
    },
    {
      "iD": 51,
      "statistics": {
        "leakedInformation": 1.3217391304347827,
        "receivedInformation": 2.495221027479092,
        "inbox": 6,
        "outbox": 5
      },
      "rootAggregateID": "9fd175cc292e337f96221f8127d56f1d914f4598",
      "rootAggregateCounter": 100
    },
    {
      "iD": 52,
      "statistics": {
        "leakedInformation": 1.8976190476190478,
        "receivedInformation": 3.3096179183135703,
        "inbox": 7,
        "outbox": 5
      },
      "rootAggregateID": "9fd175cc292e337f96221f8127d56f1d914f4598",
      "rootAggregateCounter": 100
    },
    {
      "iD": 53,
      "statistics": {
        "leakedInformation": 1.113756613756614,
        "receivedInformation": 3.8520421607378132,
        "inbox": 8,
        "outbox": 4
      },
      "rootAggregateID": "9fd175cc292e337f96221f8127d56f1d914f4598",
      "rootAggregateCounter": 100
    },
    {
      "iD": 54,
      "statistics": {
        "leakedInformation": 2.494708994708995,
        "receivedInformation": 1.2138026224982748,
        "inbox": 7,
        "outbox": 5
      },
      "rootAggregateID": "9fd175cc292e337f96221f8127d56f1d914f4598",
      "rootAggregateCounter": 100
    },
    {
      "iD": 55,
      "statistics": {
        "leakedInformation": 1.3518518518518519,
        "receivedInformation": 3.892951251646904,
        "inbox": 8,
        "outbox": 3
      },
      "rootAggregateID": "9fd175cc292e337f96221f8127d56f1d914f4598",
      "rootAggregateCounter": 100
    },
    {
      "iD": 56,
      "statistics": {
        "leakedInformation": 1.6204013377926423,
        "receivedInformation": 1.599074074074074,
        "inbox": 6,
        "outbox": 5
      },
      "rootAggregateID": "9fd175cc292e337f96221f8127d56f1d914f4598",
      "rootAggregateCounter": 100
    },
    {
      "iD": 57,
      "statistics": {
        "leakedInformation": 1.7,
        "receivedInformation": 4.485375494071146,
        "inbox": 9,
        "outbox": 3
      },
      "rootAggregateID": "9fd175cc292e337f96221f8127d56f1d914f4598",
      "rootAggregateCounter": 100
    },
    {
      "iD": 58,
      "statistics": {
        "leakedInformation": 3.8476190476190477,
        "receivedInformation": 0.6429512516469038,
        "inbox": 5,
        "outbox": 9
      },
      "rootAggregateID": "9fd175cc292e337f96221f8127d56f1d914f4598",
      "rootAggregateCounter": 100
    },
    {
      "iD": 59,
      "statistics": {
        "leakedInformation": 2.6604554865424426,
        "receivedInformation": 2.5030173530173534,
        "inbox": 7,
        "outbox": 13
      },
      "rootAggregateID": "9fd175cc292e337f96221f8127d56f1d914f4598",
      "rootAggregateCounter": 100
    },
    {
      "iD": 60,
      "statistics": {
        "leakedInformation": 1.9166666666666663,
        "receivedInformation": 3.200310559006211,
        "inbox": 8,
        "outbox": 6
      },
      "rootAggregateID": "9fd175cc292e337f96221f8127d56f1d914f4598",
      "rootAggregateCounter": 100
    },
    {
      "iD": 61,
      "statistics": {
        "leakedInformation": 1.7636363636363634,
        "receivedInformation": 2.9066597653554176,
        "inbox": 8,
        "outbox": 5
      },
      "rootAggregateID": "9fd175cc292e337f96221f8127d56f1d914f4598",
      "rootAggregateCounter": 100
    },
    {
      "iD": 62,
      "statistics": {
        "leakedInformation": 1.306505556154925,
        "receivedInformation": 2.840740740740741,
        "inbox": 8,
        "outbox": 7
      },
      "rootAggregateID": "9fd175cc292e337f96221f8127d56f1d914f4598",
      "rootAggregateCounter": 100
    },
    {
      "iD": 63,
      "statistics": {
        "leakedInformation": 2.408898508898509,
        "receivedInformation": 2.9066597653554176,
        "inbox": 8,
        "outbox": 11
      },
      "rootAggregateID": "9fd175cc292e337f96221f8127d56f1d914f4598",
      "rootAggregateCounter": 100
    },
    {
      "iD": 64,
      "statistics": {
        "leakedInformation": 2.0001443001443002,
        "receivedInformation": 2.986024844720497,
        "inbox": 8,
        "outbox": 7
      },
      "rootAggregateID": "9fd175cc292e337f96221f8127d56f1d914f4598",
      "rootAggregateCounter": 100
    },
    {
      "iD": 65,
      "statistics": {
        "leakedInformation": 1.5217391304347827,
        "receivedInformation": 2.8382987382987386,
        "inbox": 8,
        "outbox": 3
      },
      "rootAggregateID": "9fd175cc292e337f96221f8127d56f1d914f4598",
      "rootAggregateCounter": 100
    },
    {
      "iD": 66,
      "statistics": {
        "leakedInformation": 2.613636363636364,
        "receivedInformation": 1.741977225672878,
        "inbox": 6,
        "outbox": 10
      },
      "rootAggregateID": "9fd175cc292e337f96221f8127d56f1d914f4598",
      "rootAggregateCounter": 100
    },
    {
      "iD": 67,
      "statistics": {
        "leakedInformation": 5.3429951690821245,
        "receivedInformation": 0.7049654049654049,
        "inbox": 6,
        "outbox": 11
      },
      "rootAggregateID": "9fd175cc292e337f96221f8127d56f1d914f4598",
      "rootAggregateCounter": 100
    },
    {
      "iD": 68,
      "statistics": {
        "leakedInformation": 2.6285714285714286,
        "receivedInformation": 2.392951251646904,
        "inbox": 7,
        "outbox": 7
      },
      "rootAggregateID": "9fd175cc292e337f96221f8127d56f1d914f4598",
      "rootAggregateCounter": 100
    },
    {
      "iD": 69,
      "statistics": {
        "leakedInformation": 3.17989417989418,
        "receivedInformation": 2.3520421607378132,
        "inbox": 7,
        "outbox": 10
      },
      "rootAggregateID": "9fd175cc292e337f96221f8127d56f1d914f4598",
      "rootAggregateCounter": 100
    },
    {
      "iD": 70,
      "statistics": {
        "leakedInformation": 2.419191919191919,
        "receivedInformation": 3.200310559006211,
        "inbox": 8,
        "outbox": 9
      },
      "rootAggregateID": "9fd175cc292e337f96221f8127d56f1d914f4598",
      "rootAggregateCounter": 100
    },
    {
      "iD": 71,
      "statistics": {
        "leakedInformation": 2.4722222222222228,
        "receivedInformation": 1.7003105590062113,
        "inbox": 7,
        "outbox": 7
      },
      "rootAggregateID": "9fd175cc292e337f96221f8127d56f1d914f4598",
      "rootAggregateCounter": 100
    },
    {
      "iD": 72,
      "statistics": {
        "leakedInformation": 1.9260702260702263,
        "receivedInformation": 1.8193581780538302,
        "inbox": 7,
        "outbox": 8
      },
      "rootAggregateID": "9fd175cc292e337f96221f8127d56f1d914f4598",
      "rootAggregateCounter": 100
    },
    {
      "iD": 73,
      "statistics": {
        "leakedInformation": 2.489459815546772,
        "receivedInformation": 2.8382987382987386,
        "inbox": 8,
        "outbox": 9
      },
      "rootAggregateID": "9fd175cc292e337f96221f8127d56f1d914f4598",
      "rootAggregateCounter": 100
    },
    {
      "iD": 74,
      "statistics": {
        "leakedInformation": 2.7303030303030305,
        "receivedInformation": 1.7399930986887508,
        "inbox": 7,
        "outbox": 6
      },
      "rootAggregateID": "9fd175cc292e337f96221f8127d56f1d914f4598",
      "rootAggregateCounter": 100
    },
    {
      "iD": 75,
      "statistics": {
        "leakedInformation": 1.7712560386473433,
        "receivedInformation": 2.5507765830346476,
        "inbox": 7,
        "outbox": 9
      },
      "rootAggregateID": "9fd175cc292e337f96221f8127d56f1d914f4598",
      "rootAggregateCounter": 100
    },
    {
      "iD": 76,
      "statistics": {
        "leakedInformation": 8.066137566137566,
        "receivedInformation": 0.7770421607378128,
        "inbox": 5,
        "outbox": 10
      },
      "rootAggregateID": "9fd175cc292e337f96221f8127d56f1d914f4598",
      "rootAggregateCounter": 100
    },
    {
      "iD": 77,
      "statistics": {
        "leakedInformation": 2.3219696969696972,
        "receivedInformation": 1.7003105590062113,
        "inbox": 7,
        "outbox": 6
      },
      "rootAggregateID": "9fd175cc292e337f96221f8127d56f1d914f4598",
      "rootAggregateCounter": 100
    },
    {
      "iD": 78,
      "statistics": {
        "leakedInformation": 2.9550724637681163,
        "receivedInformation": 2.495221027479092,
        "inbox": 6,
        "outbox": 8
      },
      "rootAggregateID": "9fd175cc292e337f96221f8127d56f1d914f4598",
      "rootAggregateCounter": 100
    },
    {
      "iD": 79,
      "statistics": {
        "leakedInformation": 1.7999999999999998,
        "receivedInformation": 2.3841099163679806,
        "inbox": 6,
        "outbox": 5
      },
      "rootAggregateID": "9fd175cc292e337f96221f8127d56f1d914f4598",
      "rootAggregateCounter": 100
    },
    {
      "iD": 80,
      "statistics": {
        "leakedInformation": 2.2328042328042326,
        "receivedInformation": 3.8520421607378132,
        "inbox": 8,
        "outbox": 6
      },
      "rootAggregateID": "9fd175cc292e337f96221f8127d56f1d914f4598",
      "rootAggregateCounter": 100
    },
    {
      "iD": 81,
      "statistics": {
        "leakedInformation": 2.3874458874458875,
        "receivedInformation": 2.297135955831608,
        "inbox": 8,
        "outbox": 9
      },
      "rootAggregateID": "9fd175cc292e337f96221f8127d56f1d914f4598",
      "rootAggregateCounter": 100
    },
    {
      "iD": 82,
      "statistics": {
        "leakedInformation": 2.5985507246376818,
        "receivedInformation": 1.4716320716320717,
        "inbox": 7,
        "outbox": 7
      },
      "rootAggregateID": "9fd175cc292e337f96221f8127d56f1d914f4598",
      "rootAggregateCounter": 100
    },
    {
      "iD": 83,
      "statistics": {
        "leakedInformation": 2.4495169082125607,
        "receivedInformation": 2.5507765830346476,
        "inbox": 7,
        "outbox": 7
      },
      "rootAggregateID": "9fd175cc292e337f96221f8127d56f1d914f4598",
      "rootAggregateCounter": 100
    },
    {
      "iD": 84,
      "statistics": {
        "leakedInformation": 1.7575757575757576,
        "receivedInformation": 4.0049654049654055,
        "inbox": 9,
        "outbox": 4
      },
      "rootAggregateID": "9fd175cc292e337f96221f8127d56f1d914f4598",
      "rootAggregateCounter": 100
    },
    {
      "iD": 85,
      "statistics": {
        "leakedInformation": 2.547089947089947,
        "receivedInformation": 1.8096179183135706,
        "inbox": 6,
        "outbox": 7
      },
      "rootAggregateID": "9fd175cc292e337f96221f8127d56f1d914f4598",
      "rootAggregateCounter": 100
    },
    {
      "iD": 86,
      "statistics": {
        "leakedInformation": 2.89047619047619,
        "receivedInformation": 3.3187088274044796,
        "inbox": 8,
        "outbox": 9
      },
      "rootAggregateID": "9fd175cc292e337f96221f8127d56f1d914f4598",
      "rootAggregateCounter": 100
    },
    {
      "iD": 87,
      "statistics": {
        "leakedInformation": 1.6968543378080545,
        "receivedInformation": 2.5030173530173534,
        "inbox": 7,
        "outbox": 5
      },
      "rootAggregateID": "9fd175cc292e337f96221f8127d56f1d914f4598",
      "rootAggregateCounter": 100
    },
    {
      "iD": 88,
      "statistics": {
        "leakedInformation": 4.252284752284751,
        "receivedInformation": 1.2631532718489242,
        "inbox": 5,
        "outbox": 12
      },
      "rootAggregateID": "9fd175cc292e337f96221f8127d56f1d914f4598",
      "rootAggregateCounter": 100
    },
    {
      "iD": 89,
      "statistics": {
        "leakedInformation": 1.4661835748792271,
        "receivedInformation": 2.971632071632072,
        "inbox": 8,
        "outbox": 5
      },
      "rootAggregateID": "9fd175cc292e337f96221f8127d56f1d914f4598",
      "rootAggregateCounter": 100
    },
    {
      "iD": 90,
      "statistics": {
        "leakedInformation": 2.645981554677207,
        "receivedInformation": 2.5049654049654055,
        "inbox": 8,
        "outbox": 6
      },
      "rootAggregateID": "9fd175cc292e337f96221f8127d56f1d914f4598",
      "rootAggregateCounter": 100
    },
    {
      "iD": 91,
      "statistics": {
        "leakedInformation": 2.6553030303030303,
        "receivedInformation": 1.5336438923395448,
        "inbox": 6,
        "outbox": 6
      },
      "rootAggregateID": "9fd175cc292e337f96221f8127d56f1d914f4598",
      "rootAggregateCounter": 100
    },
    {
      "iD": 92,
      "statistics": {
        "leakedInformation": 2.163178336390118,
        "receivedInformation": 2.840740740740741,
        "inbox": 8,
        "outbox": 7
      },
      "rootAggregateID": "9fd175cc292e337f96221f8127d56f1d914f4598",
      "rootAggregateCounter": 100
    },
    {
      "iD": 93,
      "statistics": {
        "leakedInformation": 1.2685185185185186,
        "receivedInformation": 3.4360248447204973,
        "inbox": 8,
        "outbox": 3
      },
      "rootAggregateID": "9fd175cc292e337f96221f8127d56f1d914f4598",
      "rootAggregateCounter": 100
    },
    {
      "iD": 94,
      "statistics": {
        "leakedInformation": 1.6818181818181817,
        "receivedInformation": 4.0049654049654055,
        "inbox": 9,
        "outbox": 5
      },
      "rootAggregateID": "9fd175cc292e337f96221f8127d56f1d914f4598",
      "rootAggregateCounter": 100
    },
    {
      "iD": 95,
      "statistics": {
        "leakedInformation": 5.366666666666666,
        "receivedInformation": 0.3618876941457586,
        "inbox": 4,
        "outbox": 9
      },
      "rootAggregateID": "9fd175cc292e337f96221f8127d56f1d914f4598",
      "rootAggregateCounter": 100
    },
    {
      "iD": 96,
      "statistics": {
        "leakedInformation": 2.5217391304347827,
        "receivedInformation": 1.8007765830346476,
        "inbox": 6,
        "outbox": 5
      },
      "rootAggregateID": "9fd175cc292e337f96221f8127d56f1d914f4598",
      "rootAggregateCounter": 100
    },
    {
      "iD": 97,
      "statistics": {
        "leakedInformation": 1.6305916305916306,
        "receivedInformation": 4.485375494071146,
        "inbox": 9,
        "outbox": 6
      },
      "rootAggregateID": "9fd175cc292e337f96221f8127d56f1d914f4598",
      "rootAggregateCounter": 100
    },
    {
      "iD": 98,
      "statistics": {
        "leakedInformation": 1.9328042328042332,
        "receivedInformation": 3.892951251646904,
        "inbox": 8,
        "outbox": 7
      },
      "rootAggregateID": "9fd175cc292e337f96221f8127d56f1d914f4598",
      "rootAggregateCounter": 100
    },
    {
      "iD": 99,
      "statistics": {
        "leakedInformation": 2.2685185185185186,
        "receivedInformation": 1.9360248447204969,
        "inbox": 7,
        "outbox": 4
      },
      "rootAggregateID": "9fd175cc292e337f96221f8127d56f1d914f4598",
      "rootAggregateCounter": 100
    }
  ]
}
