{
  "host": "merkur.riemann.cc",
  "revision": "403694a3d2d276e69fa7f5e85d773b42b7d10a43",
  "num_peers": 200,
  "nounce": "01",
  "start_time": "2016-11-29T23:32:57.311Z",
  "connect_peers_time": "2016-11-29T23:32:59.524Z",
  "create_peers_duration": 2213,
  "aggregate_time": "2016-11-29T23:34:14.497Z",
  "refresh_buckets_duration": null,
  "connectMessageCount": 39706,
  "disconnect_time": "2016-11-29T23:34:17.370Z",
  "aggregate_duration": 2873,
  "totalMessageCount": 42902,
  "aggregationMessageCount": 3196,
  "rootAggregateIDs": {
    "70198c0866e442eade64bcf9cb3d6c30b36c3d7f": 200
  },
  "peers": [
    {
      "iD": 0,
      "statistics": {
        "leakedInformation": 1.8245614035087716,
        "receivedInformation": 3.018065268065268,
        "inbox": 9,
        "outbox": 6
      },
      "rootAggregateID": "70198c0866e442eade64bcf9cb3d6c30b36c3d7f",
      "rootAggregateCounter": 200
    },
    {
      "iD": 1,
      "statistics": {
        "leakedInformation": 2.791830065359477,
        "receivedInformation": 2.3586566659147303,
        "inbox": 8,
        "outbox": 9
      },
      "rootAggregateID": "70198c0866e442eade64bcf9cb3d6c30b36c3d7f",
      "rootAggregateCounter": 200
    },
    {
      "iD": 2,
      "statistics": {
        "leakedInformation": 2.756644880174292,
        "receivedInformation": 2.455441216034436,
        "inbox": 8,
        "outbox": 9
      },
      "rootAggregateID": "70198c0866e442eade64bcf9cb3d6c30b36c3d7f",
      "rootAggregateCounter": 200
    },
    {
      "iD": 3,
      "statistics": {
        "leakedInformation": 2.403846153846154,
        "receivedInformation": 2.6986333927510398,
        "inbox": 9,
        "outbox": 5
      },
      "rootAggregateID": "70198c0866e442eade64bcf9cb3d6c30b36c3d7f",
      "rootAggregateCounter": 200
    },
    {
      "iD": 4,
      "statistics": {
        "leakedInformation": 2.6777777777777776,
        "receivedInformation": 1.137363513679303,
        "inbox": 7,
        "outbox": 8
      },
      "rootAggregateID": "70198c0866e442eade64bcf9cb3d6c30b36c3d7f",
      "rootAggregateCounter": 200
    },
    {
      "iD": 5,
      "statistics": {
        "leakedInformation": 3.2758478081058726,
        "receivedInformation": 2.2648459383753496,
        "inbox": 8,
        "outbox": 9
      },
      "rootAggregateID": "70198c0866e442eade64bcf9cb3d6c30b36c3d7f",
      "rootAggregateCounter": 200
    },
    {
      "iD": 6,
      "statistics": {
        "leakedInformation": 5.198924731182796,
        "receivedInformation": 0.5040301803459698,
        "inbox": 6,
        "outbox": 7
      },
      "rootAggregateID": "70198c0866e442eade64bcf9cb3d6c30b36c3d7f",
      "rootAggregateCounter": 200
    },
    {
      "iD": 7,
      "statistics": {
        "leakedInformation": 1.8965356677221081,
        "receivedInformation": 3.2886554621848734,
        "inbox": 9,
        "outbox": 7
      },
      "rootAggregateID": "70198c0866e442eade64bcf9cb3d6c30b36c3d7f",
      "rootAggregateCounter": 200
    },
    {
      "iD": 8,
      "statistics": {
        "leakedInformation": 1.852020202020202,
        "receivedInformation": 1.8644453585630054,
        "inbox": 7,
        "outbox": 6
      },
      "rootAggregateID": "70198c0866e442eade64bcf9cb3d6c30b36c3d7f",
      "rootAggregateCounter": 200
    },
    {
      "iD": 9,
      "statistics": {
        "leakedInformation": 2.5714737507906387,
        "receivedInformation": 1.8513986013986012,
        "inbox": 8,
        "outbox": 7
      },
      "rootAggregateID": "70198c0866e442eade64bcf9cb3d6c30b36c3d7f",
      "rootAggregateCounter": 200
    },
    {
      "iD": 10,
      "statistics": {
        "leakedInformation": 1.9978632478632479,
        "receivedInformation": 1.8644453585630054,
        "inbox": 7,
        "outbox": 6
      },
      "rootAggregateID": "70198c0866e442eade64bcf9cb3d6c30b36c3d7f",
      "rootAggregateCounter": 200
    },
    {
      "iD": 11,
      "statistics": {
        "leakedInformation": 1.8916666666666668,
        "receivedInformation": 2.9836566659147303,
        "inbox": 8,
        "outbox": 6
      },
      "rootAggregateID": "70198c0866e442eade64bcf9cb3d6c30b36c3d7f",
      "rootAggregateCounter": 200
    },
    {
      "iD": 12,
      "statistics": {
        "leakedInformation": 1.3377896613190732,
        "receivedInformation": 2.378550459731915,
        "inbox": 8,
        "outbox": 7
      },
      "rootAggregateID": "70198c0866e442eade64bcf9cb3d6c30b36c3d7f",
      "rootAggregateCounter": 200
    },
    {
      "iD": 13,
      "statistics": {
        "leakedInformation": 4.516949152542373,
        "receivedInformation": 0.7183563168857285,
        "inbox": 7,
        "outbox": 8
      },
      "rootAggregateID": "70198c0866e442eade64bcf9cb3d6c30b36c3d7f",
      "rootAggregateCounter": 200
    },
    {
      "iD": 14,
      "statistics": {
        "leakedInformation": 2.0667832167832167,
        "receivedInformation": 3.656006391599612,
        "inbox": 9,
        "outbox": 8
      },
      "rootAggregateID": "70198c0866e442eade64bcf9cb3d6c30b36c3d7f",
      "rootAggregateCounter": 200
    },
    {
      "iD": 15,
      "statistics": {
        "leakedInformation": 1.7997076023391811,
        "receivedInformation": 3.4680652680652684,
        "inbox": 9,
        "outbox": 6
      },
      "rootAggregateID": "70198c0866e442eade64bcf9cb3d6c30b36c3d7f",
      "rootAggregateCounter": 200
    },
    {
      "iD": 16,
      "statistics": {
        "leakedInformation": 1.3140522875816991,
        "receivedInformation": 2.637363513679303,
        "inbox": 8,
        "outbox": 8
      },
      "rootAggregateID": "70198c0866e442eade64bcf9cb3d6c30b36c3d7f",
      "rootAggregateCounter": 200
    },
    {
      "iD": 17,
      "statistics": {
        "leakedInformation": 1.9777777777777776,
        "receivedInformation": 2.9144453585630057,
        "inbox": 8,
        "outbox": 5
      },
      "rootAggregateID": "70198c0866e442eade64bcf9cb3d6c30b36c3d7f",
      "rootAggregateCounter": 200
    },
    {
      "iD": 18,
      "statistics": {
        "leakedInformation": 1.5982905982905982,
        "receivedInformation": 3.1153000594177067,
        "inbox": 9,
        "outbox": 6
      },
      "rootAggregateID": "70198c0866e442eade64bcf9cb3d6c30b36c3d7f",
      "rootAggregateCounter": 200
    },
    {
      "iD": 19,
      "statistics": {
        "leakedInformation": 2.6142857142857143,
        "receivedInformation": 1.7649000956875718,
        "inbox": 8,
        "outbox": 7
      },
      "rootAggregateID": "70198c0866e442eade64bcf9cb3d6c30b36c3d7f",
      "rootAggregateCounter": 200
    },
    {
      "iD": 20,
      "statistics": {
        "leakedInformation": 2.59387222946545,
        "receivedInformation": 1.488655462184874,
        "inbox": 7,
        "outbox": 6
      },
      "rootAggregateID": "70198c0866e442eade64bcf9cb3d6c30b36c3d7f",
      "rootAggregateCounter": 200
    },
    {
      "iD": 21,
      "statistics": {
        "leakedInformation": 3.7877896613190734,
        "receivedInformation": 0.6285504597319153,
        "inbox": 6,
        "outbox": 9
      },
      "rootAggregateID": "70198c0866e442eade64bcf9cb3d6c30b36c3d7f",
      "rootAggregateCounter": 200
    },
    {
      "iD": 22,
      "statistics": {
        "leakedInformation": 3.681118881118882,
        "receivedInformation": 0.9893397249329452,
        "inbox": 7,
        "outbox": 10
      },
      "rootAggregateID": "70198c0866e442eade64bcf9cb3d6c30b36c3d7f",
      "rootAggregateCounter": 200
    },
    {
      "iD": 23,
      "statistics": {
        "leakedInformation": 2.536879786879786,
        "receivedInformation": 4.198633392751039,
        "inbox": 10,
        "outbox": 11
      },
      "rootAggregateID": "70198c0866e442eade64bcf9cb3d6c30b36c3d7f",
      "rootAggregateCounter": 200
    },
    {
      "iD": 24,
      "statistics": {
        "leakedInformation": 2.4674242424242423,
        "receivedInformation": 3.4933563168857287,
        "inbox": 9,
        "outbox": 7
      },
      "rootAggregateID": "70198c0866e442eade64bcf9cb3d6c30b36c3d7f",
      "rootAggregateCounter": 200
    },
    {
      "iD": 25,
      "statistics": {
        "leakedInformation": 2.932327802916038,
        "receivedInformation": 2.532486631016043,
        "inbox": 8,
        "outbox": 10
      },
      "rootAggregateID": "70198c0866e442eade64bcf9cb3d6c30b36c3d7f",
      "rootAggregateCounter": 200
    },
    {
      "iD": 26,
      "statistics": {
        "leakedInformation": 1.634090909090909,
        "receivedInformation": 3.532757238544715,
        "inbox": 9,
        "outbox": 4
      },
      "rootAggregateID": "70198c0866e442eade64bcf9cb3d6c30b36c3d7f",
      "rootAggregateCounter": 200
    },
    {
      "iD": 27,
      "statistics": {
        "leakedInformation": 1.7939291101055805,
        "receivedInformation": 4.18526440879382,
        "inbox": 9,
        "outbox": 7
      },
      "rootAggregateID": "70198c0866e442eade64bcf9cb3d6c30b36c3d7f",
      "rootAggregateCounter": 200
    },
    {
      "iD": 28,
      "statistics": {
        "leakedInformation": 5.519607843137256,
        "receivedInformation": 0.5586566659147304,
        "inbox": 6,
        "outbox": 9
      },
      "rootAggregateID": "70198c0866e442eade64bcf9cb3d6c30b36c3d7f",
      "rootAggregateCounter": 200
    },
    {
      "iD": 29,
      "statistics": {
        "leakedInformation": 2.2666666666666666,
        "receivedInformation": 1.175353710946931,
        "inbox": 7,
        "outbox": 5
      },
      "rootAggregateID": "70198c0866e442eade64bcf9cb3d6c30b36c3d7f",
      "rootAggregateCounter": 200
    },
    {
      "iD": 30,
      "statistics": {
        "leakedInformation": 2.7418300653594763,
        "receivedInformation": 1.3169899992480636,
        "inbox": 6,
        "outbox": 11
      },
      "rootAggregateID": "70198c0866e442eade64bcf9cb3d6c30b36c3d7f",
      "rootAggregateCounter": 200
    },
    {
      "iD": 31,
      "statistics": {
        "leakedInformation": 2.6946078431372547,
        "receivedInformation": 1.3169899992480636,
        "inbox": 6,
        "outbox": 7
      },
      "rootAggregateID": "70198c0866e442eade64bcf9cb3d6c30b36c3d7f",
      "rootAggregateCounter": 200
    },
    {
      "iD": 32,
      "statistics": {
        "leakedInformation": 2.818438914027149,
        "receivedInformation": 2.6852644087938207,
        "inbox": 8,
        "outbox": 9
      },
      "rootAggregateID": "70198c0866e442eade64bcf9cb3d6c30b36c3d7f",
      "rootAggregateCounter": 200
    },
    {
      "iD": 33,
      "statistics": {
        "leakedInformation": 1.906363394254136,
        "receivedInformation": 3.445843045843046,
        "inbox": 9,
        "outbox": 8
      },
      "rootAggregateID": "70198c0866e442eade64bcf9cb3d6c30b36c3d7f",
      "rootAggregateCounter": 200
    },
    {
      "iD": 34,
      "statistics": {
        "leakedInformation": 3.287529137529138,
        "receivedInformation": 1.989339724932945,
        "inbox": 8,
        "outbox": 12
      },
      "rootAggregateID": "70198c0866e442eade64bcf9cb3d6c30b36c3d7f",
      "rootAggregateCounter": 200
    },
    {
      "iD": 35,
      "statistics": {
        "leakedInformation": 3.569298245614035,
        "receivedInformation": 1.3625097125097123,
        "inbox": 8,
        "outbox": 7
      },
      "rootAggregateID": "70198c0866e442eade64bcf9cb3d6c30b36c3d7f",
      "rootAggregateCounter": 200
    },
    {
      "iD": 36,
      "statistics": {
        "leakedInformation": 3.1735042735042738,
        "receivedInformation": 0.865819964349376,
        "inbox": 6,
        "outbox": 9
      },
      "rootAggregateID": "70198c0866e442eade64bcf9cb3d6c30b36c3d7f",
      "rootAggregateCounter": 200
    },
    {
      "iD": 37,
      "statistics": {
        "leakedInformation": 3.073447644634086,
        "receivedInformation": 2.0796436854311615,
        "inbox": 8,
        "outbox": 11
      },
      "rootAggregateID": "70198c0866e442eade64bcf9cb3d6c30b36c3d7f",
      "rootAggregateCounter": 200
    },
    {
      "iD": 38,
      "statistics": {
        "leakedInformation": 1.0222222222222221,
        "receivedInformation": 2.365819964349376,
        "inbox": 7,
        "outbox": 3
      },
      "rootAggregateID": "70198c0866e442eade64bcf9cb3d6c30b36c3d7f",
      "rootAggregateCounter": 200
    },
    {
      "iD": 39,
      "statistics": {
        "leakedInformation": 3.2169934640522873,
        "receivedInformation": 1.779176379176379,
        "inbox": 8,
        "outbox": 9
      },
      "rootAggregateID": "70198c0866e442eade64bcf9cb3d6c30b36c3d7f",
      "rootAggregateCounter": 200
    },
    {
      "iD": 40,
      "statistics": {
        "leakedInformation": 5.291151332327802,
        "receivedInformation": 0.7324866310160427,
        "inbox": 6,
        "outbox": 11
      },
      "rootAggregateID": "70198c0866e442eade64bcf9cb3d6c30b36c3d7f",
      "rootAggregateCounter": 200
    },
    {
      "iD": 41,
      "statistics": {
        "leakedInformation": 2.4027195027195027,
        "receivedInformation": 2.29863339275104,
        "inbox": 7,
        "outbox": 9
      },
      "rootAggregateID": "70198c0866e442eade64bcf9cb3d6c30b36c3d7f",
      "rootAggregateCounter": 200
    },
    {
      "iD": 42,
      "statistics": {
        "leakedInformation": 2.461592152424071,
        "receivedInformation": 1.518065268065268,
        "inbox": 8,
        "outbox": 10
      },
      "rootAggregateID": "70198c0866e442eade64bcf9cb3d6c30b36c3d7f",
      "rootAggregateCounter": 200
    },
    {
      "iD": 43,
      "statistics": {
        "leakedInformation": 1.8145299145299143,
        "receivedInformation": 2.674823868941516,
        "inbox": 8,
        "outbox": 7
      },
      "rootAggregateID": "70198c0866e442eade64bcf9cb3d6c30b36c3d7f",
      "rootAggregateCounter": 200
    },
    {
      "iD": 44,
      "statistics": {
        "leakedInformation": 1.3618617941198585,
        "receivedInformation": 3.7648459383753496,
        "inbox": 9,
        "outbox": 6
      },
      "rootAggregateID": "70198c0866e442eade64bcf9cb3d6c30b36c3d7f",
      "rootAggregateCounter": 200
    },
    {
      "iD": 45,
      "statistics": {
        "leakedInformation": 2.4169934640522865,
        "receivedInformation": 1.1919899992480636,
        "inbox": 7,
        "outbox": 10
      },
      "rootAggregateID": "70198c0866e442eade64bcf9cb3d6c30b36c3d7f",
      "rootAggregateCounter": 200
    },
    {
      "iD": 46,
      "statistics": {
        "leakedInformation": 1.665735789265201,
        "receivedInformation": 2.378550459731915,
        "inbox": 8,
        "outbox": 6
      },
      "rootAggregateID": "70198c0866e442eade64bcf9cb3d6c30b36c3d7f",
      "rootAggregateCounter": 200
    },
    {
      "iD": 47,
      "statistics": {
        "leakedInformation": 2.0894703335879807,
        "receivedInformation": 2.47925073984396,
        "inbox": 9,
        "outbox": 9
      },
      "rootAggregateID": "70198c0866e442eade64bcf9cb3d6c30b36c3d7f",
      "rootAggregateCounter": 200
    },
    {
      "iD": 48,
      "statistics": {
        "leakedInformation": 2.5598679098679096,
        "receivedInformation": 1.8644453585630054,
        "inbox": 7,
        "outbox": 12
      },
      "rootAggregateID": "70198c0866e442eade64bcf9cb3d6c30b36c3d7f",
      "rootAggregateCounter": 200
    },
    {
      "iD": 49,
      "statistics": {
        "leakedInformation": 1.529946524064171,
        "receivedInformation": 2.895917406510627,
        "inbox": 9,
        "outbox": 7
      },
      "rootAggregateID": "70198c0866e442eade64bcf9cb3d6c30b36c3d7f",
      "rootAggregateCounter": 200
    },
    {
      "iD": 50,
      "statistics": {
        "leakedInformation": 2.480995438253503,
        "receivedInformation": 1.9933563168857287,
        "inbox": 8,
        "outbox": 11
      },
      "rootAggregateID": "70198c0866e442eade64bcf9cb3d6c30b36c3d7f",
      "rootAggregateCounter": 200
    },
    {
      "iD": 51,
      "statistics": {
        "leakedInformation": 1.9698624904507256,
        "receivedInformation": 2.47925073984396,
        "inbox": 9,
        "outbox": 7
      },
      "rootAggregateID": "70198c0866e442eade64bcf9cb3d6c30b36c3d7f",
      "rootAggregateCounter": 200
    },
    {
      "iD": 52,
      "statistics": {
        "leakedInformation": 2.3088235294117645,
        "receivedInformation": 3.0185977421271537,
        "inbox": 8,
        "outbox": 6
      },
      "rootAggregateID": "70198c0866e442eade64bcf9cb3d6c30b36c3d7f",
      "rootAggregateCounter": 200
    },
    {
      "iD": 53,
      "statistics": {
        "leakedInformation": 2.852941176470588,
        "receivedInformation": 2.6919899992480634,
        "inbox": 8,
        "outbox": 11
      },
      "rootAggregateID": "70198c0866e442eade64bcf9cb3d6c30b36c3d7f",
      "rootAggregateCounter": 200
    },
    {
      "iD": 54,
      "statistics": {
        "leakedInformation": 3.0277056277056285,
        "receivedInformation": 1.7697269303201508,
        "inbox": 8,
        "outbox": 8
      },
      "rootAggregateID": "70198c0866e442eade64bcf9cb3d6c30b36c3d7f",
      "rootAggregateCounter": 200
    },
    {
      "iD": 55,
      "statistics": {
        "leakedInformation": 3.362032085561498,
        "receivedInformation": 0.7560063915996118,
        "inbox": 6,
        "outbox": 8
      },
      "rootAggregateID": "70198c0866e442eade64bcf9cb3d6c30b36c3d7f",
      "rootAggregateCounter": 200
    },
    {
      "iD": 56,
      "statistics": {
        "leakedInformation": 1.3200716845878135,
        "receivedInformation": 4.468356316885728,
        "inbox": 10,
        "outbox": 5
      },
      "rootAggregateID": "70198c0866e442eade64bcf9cb3d6c30b36c3d7f",
      "rootAggregateCounter": 200
    },
    {
      "iD": 57,
      "statistics": {
        "leakedInformation": 1.05,
        "receivedInformation": 3.8586566659147303,
        "inbox": 9,
        "outbox": 2
      },
      "rootAggregateID": "70198c0866e442eade64bcf9cb3d6c30b36c3d7f",
      "rootAggregateCounter": 200
    },
    {
      "iD": 58,
      "statistics": {
        "leakedInformation": 3.0090909090909093,
        "receivedInformation": 1.8016896502190618,
        "inbox": 8,
        "outbox": 4
      },
      "rootAggregateID": "70198c0866e442eade64bcf9cb3d6c30b36c3d7f",
      "rootAggregateCounter": 200
    },
    {
      "iD": 59,
      "statistics": {
        "leakedInformation": 3.1766214177978878,
        "receivedInformation": 2.385264408793821,
        "inbox": 7,
        "outbox": 11
      },
      "rootAggregateID": "70198c0866e442eade64bcf9cb3d6c30b36c3d7f",
      "rootAggregateCounter": 200
    },
    {
      "iD": 60,
      "statistics": {
        "leakedInformation": 2.749056390232861,
        "receivedInformation": 1.3959174065106268,
        "inbox": 8,
        "outbox": 12
      },
      "rootAggregateID": "70198c0866e442eade64bcf9cb3d6c30b36c3d7f",
      "rootAggregateCounter": 200
    },
    {
      "iD": 61,
      "statistics": {
        "leakedInformation": 1.535130970724191,
        "receivedInformation": 3.264900095687572,
        "inbox": 9,
        "outbox": 5
      },
      "rootAggregateID": "70198c0866e442eade64bcf9cb3d6c30b36c3d7f",
      "rootAggregateCounter": 200
    },
    {
      "iD": 62,
      "statistics": {
        "leakedInformation": 3.5029411764705882,
        "receivedInformation": 1.6420203776135978,
        "inbox": 7,
        "outbox": 11
      },
      "rootAggregateID": "70198c0866e442eade64bcf9cb3d6c30b36c3d7f",
      "rootAggregateCounter": 200
    },
    {
      "iD": 63,
      "statistics": {
        "leakedInformation": 2.0171568627450984,
        "receivedInformation": 2.7393397249329454,
        "inbox": 9,
        "outbox": 10
      },
      "rootAggregateID": "70198c0866e442eade64bcf9cb3d6c30b36c3d7f",
      "rootAggregateCounter": 200
    },
    {
      "iD": 64,
      "statistics": {
        "leakedInformation": 4.13931623931624,
        "receivedInformation": 0.7986333927510397,
        "inbox": 6,
        "outbox": 12
      },
      "rootAggregateID": "70198c0866e442eade64bcf9cb3d6c30b36c3d7f",
      "rootAggregateCounter": 200
    },
    {
      "iD": 65,
      "statistics": {
        "leakedInformation": 2.439393939393939,
        "receivedInformation": 1.175353710946931,
        "inbox": 7,
        "outbox": 6
      },
      "rootAggregateID": "70198c0866e442eade64bcf9cb3d6c30b36c3d7f",
      "rootAggregateCounter": 200
    },
    {
      "iD": 66,
      "statistics": {
        "leakedInformation": 1.5,
        "receivedInformation": 1.8644453585630054,
        "inbox": 7,
        "outbox": 2
      },
      "rootAggregateID": "70198c0866e442eade64bcf9cb3d6c30b36c3d7f",
      "rootAggregateCounter": 200
    },
    {
      "iD": 67,
      "statistics": {
        "leakedInformation": 2.45774826059456,
        "receivedInformation": 1.968065268065268,
        "inbox": 8,
        "outbox": 12
      },
      "rootAggregateID": "70198c0866e442eade64bcf9cb3d6c30b36c3d7f",
      "rootAggregateCounter": 200
    },
    {
      "iD": 68,
      "statistics": {
        "leakedInformation": 3.630819180819181,
        "receivedInformation": 0.5740881298756061,
        "inbox": 6,
        "outbox": 9
      },
      "rootAggregateID": "70198c0866e442eade64bcf9cb3d6c30b36c3d7f",
      "rootAggregateCounter": 200
    },
    {
      "iD": 69,
      "statistics": {
        "leakedInformation": 1.5338983050847457,
        "receivedInformation": 2.098233429020905,
        "inbox": 8,
        "outbox": 4
      },
      "rootAggregateID": "70198c0866e442eade64bcf9cb3d6c30b36c3d7f",
      "rootAggregateCounter": 200
    },
    {
      "iD": 70,
      "statistics": {
        "leakedInformation": 1.9456299691593806,
        "receivedInformation": 3.2697269303201506,
        "inbox": 9,
        "outbox": 8
      },
      "rootAggregateID": "70198c0866e442eade64bcf9cb3d6c30b36c3d7f",
      "rootAggregateCounter": 200
    },
    {
      "iD": 71,
      "statistics": {
        "leakedInformation": 3.673123486682808,
        "receivedInformation": 1.4649000956875717,
        "inbox": 7,
        "outbox": 15
      },
      "rootAggregateID": "70198c0866e442eade64bcf9cb3d6c30b36c3d7f",
      "rootAggregateCounter": 200
    },
    {
      "iD": 72,
      "statistics": {
        "leakedInformation": 3.364417785604226,
        "receivedInformation": 0.8660905718780479,
        "inbox": 7,
        "outbox": 9
      },
      "rootAggregateID": "70198c0866e442eade64bcf9cb3d6c30b36c3d7f",
      "rootAggregateCounter": 200
    },
    {
      "iD": 73,
      "statistics": {
        "leakedInformation": 1.0769230769230769,
        "receivedInformation": 3.2886554621848734,
        "inbox": 9,
        "outbox": 2
      },
      "rootAggregateID": "70198c0866e442eade64bcf9cb3d6c30b36c3d7f",
      "rootAggregateCounter": 200
    },
    {
      "iD": 74,
      "statistics": {
        "leakedInformation": 3.0725490196078433,
        "receivedInformation": 1.137363513679303,
        "inbox": 7,
        "outbox": 12
      },
      "rootAggregateID": "70198c0866e442eade64bcf9cb3d6c30b36c3d7f",
      "rootAggregateCounter": 200
    },
    {
      "iD": 75,
      "statistics": {
        "leakedInformation": 2.598039215686274,
        "receivedInformation": 1.4697269303201508,
        "inbox": 7,
        "outbox": 7
      },
      "rootAggregateID": "70198c0866e442eade64bcf9cb3d6c30b36c3d7f",
      "rootAggregateCounter": 200
    },
    {
      "iD": 76,
      "statistics": {
        "leakedInformation": 2.0156954156954154,
        "receivedInformation": 1.7477786918963387,
        "inbox": 7,
        "outbox": 11
      },
      "rootAggregateID": "70198c0866e442eade64bcf9cb3d6c30b36c3d7f",
      "rootAggregateCounter": 200
    },
    {
      "iD": 77,
      "statistics": {
        "leakedInformation": 1.8520102990691225,
        "receivedInformation": 1.6285504597319154,
        "inbox": 7,
        "outbox": 8
      },
      "rootAggregateID": "70198c0866e442eade64bcf9cb3d6c30b36c3d7f",
      "rootAggregateCounter": 200
    },
    {
      "iD": 78,
      "statistics": {
        "leakedInformation": 2.082206682206682,
        "receivedInformation": 1.6153000594177063,
        "inbox": 8,
        "outbox": 5
      },
      "rootAggregateID": "70198c0866e442eade64bcf9cb3d6c30b36c3d7f",
      "rootAggregateCounter": 200
    },
    {
      "iD": 79,
      "statistics": {
        "leakedInformation": 1.5558823529411765,
        "receivedInformation": 4.150323332581396,
        "inbox": 9,
        "outbox": 8
      },
      "rootAggregateID": "70198c0866e442eade64bcf9cb3d6c30b36c3d7f",
      "rootAggregateCounter": 200
    },
    {
      "iD": 80,
      "statistics": {
        "leakedInformation": 3.7222222222222223,
        "receivedInformation": 0.8013986013986014,
        "inbox": 7,
        "outbox": 7
      },
      "rootAggregateID": "70198c0866e442eade64bcf9cb3d6c30b36c3d7f",
      "rootAggregateCounter": 200
    },
    {
      "iD": 81,
      "statistics": {
        "leakedInformation": 1.1770801232665637,
        "receivedInformation": 3.532757238544715,
        "inbox": 9,
        "outbox": 6
      },
      "rootAggregateID": "70198c0866e442eade64bcf9cb3d6c30b36c3d7f",
      "rootAggregateCounter": 200
    },
    {
      "iD": 82,
      "statistics": {
        "leakedInformation": 3.4895937395937393,
        "receivedInformation": 1.531966726084373,
        "inbox": 8,
        "outbox": 8
      },
      "rootAggregateID": "70198c0866e442eade64bcf9cb3d6c30b36c3d7f",
      "rootAggregateCounter": 200
    },
    {
      "iD": 83,
      "statistics": {
        "leakedInformation": 1.7948717948717945,
        "receivedInformation": 2.29863339275104,
        "inbox": 7,
        "outbox": 6
      },
      "rootAggregateID": "70198c0866e442eade64bcf9cb3d6c30b36c3d7f",
      "rootAggregateCounter": 200
    },
    {
      "iD": 84,
      "statistics": {
        "leakedInformation": 2.2932880844645545,
        "receivedInformation": 3.0185977421271537,
        "inbox": 8,
        "outbox": 9
      },
      "rootAggregateID": "70198c0866e442eade64bcf9cb3d6c30b36c3d7f",
      "rootAggregateCounter": 200
    },
    {
      "iD": 85,
      "statistics": {
        "leakedInformation": 4.739692510878951,
        "receivedInformation": 1.0386554621848738,
        "inbox": 7,
        "outbox": 12
      },
      "rootAggregateID": "70198c0866e442eade64bcf9cb3d6c30b36c3d7f",
      "rootAggregateCounter": 200
    },
    {
      "iD": 86,
      "statistics": {
        "leakedInformation": 1.8760852051174628,
        "receivedInformation": 3.2886554621848734,
        "inbox": 9,
        "outbox": 11
      },
      "rootAggregateID": "70198c0866e442eade64bcf9cb3d6c30b36c3d7f",
      "rootAggregateCounter": 200
    },
    {
      "iD": 87,
      "statistics": {
        "leakedInformation": 1.6862745098039214,
        "receivedInformation": 2.256006391599612,
        "inbox": 7,
        "outbox": 4
      },
      "rootAggregateID": "70198c0866e442eade64bcf9cb3d6c30b36c3d7f",
      "rootAggregateCounter": 200
    },
    {
      "iD": 88,
      "statistics": {
        "leakedInformation": 2.0441598144634194,
        "receivedInformation": 3.8040301803459697,
        "inbox": 9,
        "outbox": 10
      },
      "rootAggregateID": "70198c0866e442eade64bcf9cb3d6c30b36c3d7f",
      "rootAggregateCounter": 200
    },
    {
      "iD": 89,
      "statistics": {
        "leakedInformation": 2.4820840176772387,
        "receivedInformation": 3.579643685431162,
        "inbox": 9,
        "outbox": 13
      },
      "rootAggregateID": "70198c0866e442eade64bcf9cb3d6c30b36c3d7f",
      "rootAggregateCounter": 200
    },
    {
      "iD": 90,
      "statistics": {
        "leakedInformation": 1.7973856209150327,
        "receivedInformation": 2.691989999248064,
        "inbox": 8,
        "outbox": 8
      },
      "rootAggregateID": "70198c0866e442eade64bcf9cb3d6c30b36c3d7f",
      "rootAggregateCounter": 200
    },
    {
      "iD": 91,
      "statistics": {
        "leakedInformation": 1.4398146110010517,
        "receivedInformation": 3.579643685431162,
        "inbox": 9,
        "outbox": 7
      },
      "rootAggregateID": "70198c0866e442eade64bcf9cb3d6c30b36c3d7f",
      "rootAggregateCounter": 200
    },
    {
      "iD": 92,
      "statistics": {
        "leakedInformation": 2.3328853046594977,
        "receivedInformation": 1.9933563168857287,
        "inbox": 8,
        "outbox": 8
      },
      "rootAggregateID": "70198c0866e442eade64bcf9cb3d6c30b36c3d7f",
      "rootAggregateCounter": 200
    },
    {
      "iD": 93,
      "statistics": {
        "leakedInformation": 1.4519230769230769,
        "receivedInformation": 3.656006391599612,
        "inbox": 9,
        "outbox": 4
      },
      "rootAggregateID": "70198c0866e442eade64bcf9cb3d6c30b36c3d7f",
      "rootAggregateCounter": 200
    },
    {
      "iD": 94,
      "statistics": {
        "leakedInformation": 2.60909090909091,
        "receivedInformation": 1.8016896502190618,
        "inbox": 8,
        "outbox": 9
      },
      "rootAggregateID": "70198c0866e442eade64bcf9cb3d6c30b36c3d7f",
      "rootAggregateCounter": 200
    },
    {
      "iD": 95,
      "statistics": {
        "leakedInformation": 2.8591297591297593,
        "receivedInformation": 1.1748238689415158,
        "inbox": 7,
        "outbox": 11
      },
      "rootAggregateID": "70198c0866e442eade64bcf9cb3d6c30b36c3d7f",
      "rootAggregateCounter": 200
    },
    {
      "iD": 96,
      "statistics": {
        "leakedInformation": 1.6588235294117648,
        "receivedInformation": 2.47925073984396,
        "inbox": 9,
        "outbox": 4
      },
      "rootAggregateID": "70198c0866e442eade64bcf9cb3d6c30b36c3d7f",
      "rootAggregateCounter": 200
    },
    {
      "iD": 97,
      "statistics": {
        "leakedInformation": 2.7822001527883877,
        "receivedInformation": 2.1030602636534836,
        "inbox": 8,
        "outbox": 12
      },
      "rootAggregateID": "70198c0866e442eade64bcf9cb3d6c30b36c3d7f",
      "rootAggregateCounter": 200
    },
    {
      "iD": 98,
      "statistics": {
        "leakedInformation": 2.3555555555555556,
        "receivedInformation": 1.4144453585630055,
        "inbox": 7,
        "outbox": 7
      },
      "rootAggregateID": "70198c0866e442eade64bcf9cb3d6c30b36c3d7f",
      "rootAggregateCounter": 200
    },
    {
      "iD": 99,
      "statistics": {
        "leakedInformation": 4.383660130718955,
        "receivedInformation": 1.5540301803459697,
        "inbox": 7,
        "outbox": 9
      },
      "rootAggregateID": "70198c0866e442eade64bcf9cb3d6c30b36c3d7f",
      "rootAggregateCounter": 200
    },
    {
      "iD": 100,
      "statistics": {
        "leakedInformation": 1.727321697909933,
        "receivedInformation": 2.385264408793821,
        "inbox": 7,
        "outbox": 5
      },
      "rootAggregateID": "70198c0866e442eade64bcf9cb3d6c30b36c3d7f",
      "rootAggregateCounter": 200
    },
    {
      "iD": 101,
      "statistics": {
        "leakedInformation": 2.0084967320261438,
        "receivedInformation": 3.8586566659147303,
        "inbox": 9,
        "outbox": 8
      },
      "rootAggregateID": "70198c0866e442eade64bcf9cb3d6c30b36c3d7f",
      "rootAggregateCounter": 200
    },
    {
      "iD": 102,
      "statistics": {
        "leakedInformation": 1.8314715785304019,
        "receivedInformation": 3.2952171263985814,
        "inbox": 8,
        "outbox": 10
      },
      "rootAggregateID": "70198c0866e442eade64bcf9cb3d6c30b36c3d7f",
      "rootAggregateCounter": 200
    },
    {
      "iD": 103,
      "statistics": {
        "leakedInformation": 1.181196581196581,
        "receivedInformation": 4.0324866310160425,
        "inbox": 9,
        "outbox": 7
      },
      "rootAggregateID": "70198c0866e442eade64bcf9cb3d6c30b36c3d7f",
      "rootAggregateCounter": 200
    },
    {
      "iD": 104,
      "statistics": {
        "leakedInformation": 3.6301247267441217,
        "receivedInformation": 0.7791763791763793,
        "inbox": 7,
        "outbox": 12
      },
      "rootAggregateID": "70198c0866e442eade64bcf9cb3d6c30b36c3d7f",
      "rootAggregateCounter": 200
    },
    {
      "iD": 105,
      "statistics": {
        "leakedInformation": 2.4711469534050186,
        "receivedInformation": 2.637363513679303,
        "inbox": 8,
        "outbox": 12
      },
      "rootAggregateID": "70198c0866e442eade64bcf9cb3d6c30b36c3d7f",
      "rootAggregateCounter": 200
    },
    {
      "iD": 106,
      "statistics": {
        "leakedInformation": 2.8177978883861234,
        "receivedInformation": 2.365819964349376,
        "inbox": 7,
        "outbox": 10
      },
      "rootAggregateID": "70198c0866e442eade64bcf9cb3d6c30b36c3d7f",
      "rootAggregateCounter": 200
    },
    {
      "iD": 107,
      "statistics": {
        "leakedInformation": 2.055044390637611,
        "receivedInformation": 3.532757238544715,
        "inbox": 9,
        "outbox": 9
      },
      "rootAggregateID": "70198c0866e442eade64bcf9cb3d6c30b36c3d7f",
      "rootAggregateCounter": 200
    },
    {
      "iD": 108,
      "statistics": {
        "leakedInformation": 5.3279411764705875,
        "receivedInformation": 0.850323332581397,
        "inbox": 6,
        "outbox": 13
      },
      "rootAggregateID": "70198c0866e442eade64bcf9cb3d6c30b36c3d7f",
      "rootAggregateCounter": 200
    },
    {
      "iD": 109,
      "statistics": {
        "leakedInformation": 1.501089324618736,
        "receivedInformation": 2.455441216034436,
        "inbox": 8,
        "outbox": 7
      },
      "rootAggregateID": "70198c0866e442eade64bcf9cb3d6c30b36c3d7f",
      "rootAggregateCounter": 200
    },
    {
      "iD": 110,
      "statistics": {
        "leakedInformation": 1.2156005011937214,
        "receivedInformation": 3.240754796542273,
        "inbox": 8,
        "outbox": 6
      },
      "rootAggregateID": "70198c0866e442eade64bcf9cb3d6c30b36c3d7f",
      "rootAggregateCounter": 200
    },
    {
      "iD": 111,
      "statistics": {
        "leakedInformation": 3.2085797441729644,
        "receivedInformation": 0.912977018764495,
        "inbox": 7,
        "outbox": 8
      },
      "rootAggregateID": "70198c0866e442eade64bcf9cb3d6c30b36c3d7f",
      "rootAggregateCounter": 200
    },
    {
      "iD": 112,
      "statistics": {
        "leakedInformation": 3.3479437229437234,
        "receivedInformation": 0.8660905718780479,
        "inbox": 7,
        "outbox": 10
      },
      "rootAggregateID": "70198c0866e442eade64bcf9cb3d6c30b36c3d7f",
      "rootAggregateCounter": 200
    },
    {
      "iD": 113,
      "statistics": {
        "leakedInformation": 2.354100325286766,
        "receivedInformation": 1.4683563168857285,
        "inbox": 8,
        "outbox": 8
      },
      "rootAggregateID": "70198c0866e442eade64bcf9cb3d6c30b36c3d7f",
      "rootAggregateCounter": 200
    },
    {
      "iD": 114,
      "statistics": {
        "leakedInformation": 2.1333333333333333,
        "receivedInformation": 3.4680652680652684,
        "inbox": 9,
        "outbox": 7
      },
      "rootAggregateID": "70198c0866e442eade64bcf9cb3d6c30b36c3d7f",
      "rootAggregateCounter": 200
    },
    {
      "iD": 115,
      "statistics": {
        "leakedInformation": 1.665935395097484,
        "receivedInformation": 1.8513986013986012,
        "inbox": 8,
        "outbox": 10
      },
      "rootAggregateID": "70198c0866e442eade64bcf9cb3d6c30b36c3d7f",
      "rootAggregateCounter": 200
    },
    {
      "iD": 116,
      "statistics": {
        "leakedInformation": 1.2973856209150327,
        "receivedInformation": 2.691989999248064,
        "inbox": 8,
        "outbox": 6
      },
      "rootAggregateID": "70198c0866e442eade64bcf9cb3d6c30b36c3d7f",
      "rootAggregateCounter": 200
    },
    {
      "iD": 117,
      "statistics": {
        "leakedInformation": 1.8571428571428572,
        "receivedInformation": 1.4649000956875717,
        "inbox": 7,
        "outbox": 6
      },
      "rootAggregateID": "70198c0866e442eade64bcf9cb3d6c30b36c3d7f",
      "rootAggregateCounter": 200
    },
    {
      "iD": 118,
      "statistics": {
        "leakedInformation": 2.144607843137255,
        "receivedInformation": 4.308687044280265,
        "inbox": 9,
        "outbox": 9
      },
      "rootAggregateID": "70198c0866e442eade64bcf9cb3d6c30b36c3d7f",
      "rootAggregateCounter": 200
    },
    {
      "iD": 119,
      "statistics": {
        "leakedInformation": 2.2867383512544803,
        "receivedInformation": 3.8040301803459697,
        "inbox": 9,
        "outbox": 11
      },
      "rootAggregateID": "70198c0866e442eade64bcf9cb3d6c30b36c3d7f",
      "rootAggregateCounter": 200
    },
    {
      "iD": 120,
      "statistics": {
        "leakedInformation": 1.8967914438502669,
        "receivedInformation": 2.675353710946932,
        "inbox": 8,
        "outbox": 8
      },
      "rootAggregateID": "70198c0866e442eade64bcf9cb3d6c30b36c3d7f",
      "rootAggregateCounter": 200
    },
    {
      "iD": 121,
      "statistics": {
        "leakedInformation": 1.4640522875816993,
        "receivedInformation": 4.029176379176379,
        "inbox": 10,
        "outbox": 5
      },
      "rootAggregateID": "70198c0866e442eade64bcf9cb3d6c30b36c3d7f",
      "rootAggregateCounter": 200
    },
    {
      "iD": 122,
      "statistics": {
        "leakedInformation": 1.7833333333333334,
        "receivedInformation": 4.308687044280265,
        "inbox": 9,
        "outbox": 5
      },
      "rootAggregateID": "70198c0866e442eade64bcf9cb3d6c30b36c3d7f",
      "rootAggregateCounter": 200
    },
    {
      "iD": 123,
      "statistics": {
        "leakedInformation": 2.545860566448802,
        "receivedInformation": 1.795217126398582,
        "inbox": 7,
        "outbox": 9
      },
      "rootAggregateID": "70198c0866e442eade64bcf9cb3d6c30b36c3d7f",
      "rootAggregateCounter": 200
    },
    {
      "iD": 124,
      "statistics": {
        "leakedInformation": 2.356639928698752,
        "receivedInformation": 2.675353710946932,
        "inbox": 8,
        "outbox": 11
      },
      "rootAggregateID": "70198c0866e442eade64bcf9cb3d6c30b36c3d7f",
      "rootAggregateCounter": 200
    },
    {
      "iD": 125,
      "statistics": {
        "leakedInformation": 2.0965309200603315,
        "receivedInformation": 2.7393397249329454,
        "inbox": 9,
        "outbox": 8
      },
      "rootAggregateID": "70198c0866e442eade64bcf9cb3d6c30b36c3d7f",
      "rootAggregateCounter": 200
    },
    {
      "iD": 126,
      "statistics": {
        "leakedInformation": 2.500017199862401,
        "receivedInformation": 2.5291763791763793,
        "inbox": 9,
        "outbox": 7
      },
      "rootAggregateID": "70198c0866e442eade64bcf9cb3d6c30b36c3d7f",
      "rootAggregateCounter": 200
    },
    {
      "iD": 127,
      "statistics": {
        "leakedInformation": 2.1946078431372547,
        "receivedInformation": 2.6503233325813973,
        "inbox": 8,
        "outbox": 5
      },
      "rootAggregateID": "70198c0866e442eade64bcf9cb3d6c30b36c3d7f",
      "rootAggregateCounter": 200
    },
    {
      "iD": 128,
      "statistics": {
        "leakedInformation": 2.7090909090909094,
        "receivedInformation": 1.6285504597319154,
        "inbox": 7,
        "outbox": 7
      },
      "rootAggregateID": "70198c0866e442eade64bcf9cb3d6c30b36c3d7f",
      "rootAggregateCounter": 200
    },
    {
      "iD": 129,
      "statistics": {
        "leakedInformation": 2.2966230936819176,
        "receivedInformation": 2.378550459731915,
        "inbox": 8,
        "outbox": 10
      },
      "rootAggregateID": "70198c0866e442eade64bcf9cb3d6c30b36c3d7f",
      "rootAggregateCounter": 200
    },
    {
      "iD": 130,
      "statistics": {
        "leakedInformation": 3.7050616050616054,
        "receivedInformation": 1.7407547965422727,
        "inbox": 7,
        "outbox": 11
      },
      "rootAggregateID": "70198c0866e442eade64bcf9cb3d6c30b36c3d7f",
      "rootAggregateCounter": 200
    },
    {
      "iD": 131,
      "statistics": {
        "leakedInformation": 2.5191469547401755,
        "receivedInformation": 3.129643685431162,
        "inbox": 9,
        "outbox": 10
      },
      "rootAggregateID": "70198c0866e442eade64bcf9cb3d6c30b36c3d7f",
      "rootAggregateCounter": 200
    },
    {
      "iD": 132,
      "statistics": {
        "leakedInformation": 2.28034188034188,
        "receivedInformation": 2.865819964349376,
        "inbox": 8,
        "outbox": 9
      },
      "rootAggregateID": "70198c0866e442eade64bcf9cb3d6c30b36c3d7f",
      "rootAggregateCounter": 200
    },
    {
      "iD": 133,
      "statistics": {
        "leakedInformation": 2.3380961059473906,
        "receivedInformation": 2.9683563168857288,
        "inbox": 9,
        "outbox": 8
      },
      "rootAggregateID": "70198c0866e442eade64bcf9cb3d6c30b36c3d7f",
      "rootAggregateCounter": 200
    },
    {
      "iD": 134,
      "statistics": {
        "leakedInformation": 1.4228654584586788,
        "receivedInformation": 3.129643685431162,
        "inbox": 9,
        "outbox": 6
      },
      "rootAggregateID": "70198c0866e442eade64bcf9cb3d6c30b36c3d7f",
      "rootAggregateCounter": 200
    },
    {
      "iD": 135,
      "statistics": {
        "leakedInformation": 1.7284210140142342,
        "receivedInformation": 3.264900095687572,
        "inbox": 9,
        "outbox": 8
      },
      "rootAggregateID": "70198c0866e442eade64bcf9cb3d6c30b36c3d7f",
      "rootAggregateCounter": 200
    },
    {
      "iD": 136,
      "statistics": {
        "leakedInformation": 2.127752639517345,
        "receivedInformation": 2.865819964349376,
        "inbox": 8,
        "outbox": 11
      },
      "rootAggregateID": "70198c0866e442eade64bcf9cb3d6c30b36c3d7f",
      "rootAggregateCounter": 200
    },
    {
      "iD": 137,
      "statistics": {
        "leakedInformation": 1.3637233460907598,
        "receivedInformation": 3.4933563168857287,
        "inbox": 9,
        "outbox": 7
      },
      "rootAggregateID": "70198c0866e442eade64bcf9cb3d6c30b36c3d7f",
      "rootAggregateCounter": 200
    },
    {
      "iD": 138,
      "statistics": {
        "leakedInformation": 4.6004317716182115,
        "receivedInformation": 0.8796436854311617,
        "inbox": 7,
        "outbox": 13
      },
      "rootAggregateID": "70198c0866e442eade64bcf9cb3d6c30b36c3d7f",
      "rootAggregateCounter": 200
    },
    {
      "iD": 139,
      "statistics": {
        "leakedInformation": 1.7380961059473907,
        "receivedInformation": 2.9683563168857288,
        "inbox": 9,
        "outbox": 7
      },
      "rootAggregateID": "70198c0866e442eade64bcf9cb3d6c30b36c3d7f",
      "rootAggregateCounter": 200
    },
    {
      "iD": 140,
      "statistics": {
        "leakedInformation": 3.240273704789834,
        "receivedInformation": 1.0981792717086833,
        "inbox": 7,
        "outbox": 7
      },
      "rootAggregateID": "70198c0866e442eade64bcf9cb3d6c30b36c3d7f",
      "rootAggregateCounter": 200
    },
    {
      "iD": 141,
      "statistics": {
        "leakedInformation": 2.2999999999999994,
        "receivedInformation": 2.691989999248064,
        "inbox": 8,
        "outbox": 9
      },
      "rootAggregateID": "70198c0866e442eade64bcf9cb3d6c30b36c3d7f",
      "rootAggregateCounter": 200
    },
    {
      "iD": 142,
      "statistics": {
        "leakedInformation": 2.5846153846153848,
        "receivedInformation": 1.7477786918963387,
        "inbox": 7,
        "outbox": 10
      },
      "rootAggregateID": "70198c0866e442eade64bcf9cb3d6c30b36c3d7f",
      "rootAggregateCounter": 200
    },
    {
      "iD": 143,
      "statistics": {
        "leakedInformation": 2.517569499936914,
        "receivedInformation": 3.2886554621848734,
        "inbox": 9,
        "outbox": 10
      },
      "rootAggregateID": "70198c0866e442eade64bcf9cb3d6c30b36c3d7f",
      "rootAggregateCounter": 200
    },
    {
      "iD": 144,
      "statistics": {
        "leakedInformation": 2.0046840958605663,
        "receivedInformation": 2.47925073984396,
        "inbox": 9,
        "outbox": 9
      },
      "rootAggregateID": "70198c0866e442eade64bcf9cb3d6c30b36c3d7f",
      "rootAggregateCounter": 200
    },
    {
      "iD": 145,
      "statistics": {
        "leakedInformation": 1.835330900036782,
        "receivedInformation": 2.1030602636534836,
        "inbox": 8,
        "outbox": 11
      },
      "rootAggregateID": "70198c0866e442eade64bcf9cb3d6c30b36c3d7f",
      "rootAggregateCounter": 200
    },
    {
      "iD": 146,
      "statistics": {
        "leakedInformation": 2.686111111111111,
        "receivedInformation": 2.9836566659147303,
        "inbox": 8,
        "outbox": 10
      },
      "rootAggregateID": "70198c0866e442eade64bcf9cb3d6c30b36c3d7f",
      "rootAggregateCounter": 200
    },
    {
      "iD": 147,
      "statistics": {
        "leakedInformation": 2.2020053475935826,
        "receivedInformation": 2.675353710946932,
        "inbox": 8,
        "outbox": 12
      },
      "rootAggregateID": "70198c0866e442eade64bcf9cb3d6c30b36c3d7f",
      "rootAggregateCounter": 200
    },
    {
      "iD": 148,
      "statistics": {
        "leakedInformation": 1.9342361666035803,
        "receivedInformation": 3.7648459383753496,
        "inbox": 9,
        "outbox": 9
      },
      "rootAggregateID": "70198c0866e442eade64bcf9cb3d6c30b36c3d7f",
      "rootAggregateCounter": 200
    },
    {
      "iD": 149,
      "statistics": {
        "leakedInformation": 1.561111111111111,
        "receivedInformation": 2.6919899992480634,
        "inbox": 8,
        "outbox": 8
      },
      "rootAggregateID": "70198c0866e442eade64bcf9cb3d6c30b36c3d7f",
      "rootAggregateCounter": 200
    },
    {
      "iD": 150,
      "statistics": {
        "leakedInformation": 3.1049514755397114,
        "receivedInformation": 0.9554412160344361,
        "inbox": 7,
        "outbox": 8
      },
      "rootAggregateID": "70198c0866e442eade64bcf9cb3d6c30b36c3d7f",
      "rootAggregateCounter": 200
    },
    {
      "iD": 151,
      "statistics": {
        "leakedInformation": 2.022222222222222,
        "receivedInformation": 2.637363513679303,
        "inbox": 8,
        "outbox": 7
      },
      "rootAggregateID": "70198c0866e442eade64bcf9cb3d6c30b36c3d7f",
      "rootAggregateCounter": 200
    },
    {
      "iD": 152,
      "statistics": {
        "leakedInformation": 2.9610139860139864,
        "receivedInformation": 2.256006391599612,
        "inbox": 7,
        "outbox": 9
      },
      "rootAggregateID": "70198c0866e442eade64bcf9cb3d6c30b36c3d7f",
      "rootAggregateCounter": 200
    },
    {
      "iD": 153,
      "statistics": {
        "leakedInformation": 1.0507575757575758,
        "receivedInformation": 1.989339724932945,
        "inbox": 8,
        "outbox": 3
      },
      "rootAggregateID": "70198c0866e442eade64bcf9cb3d6c30b36c3d7f",
      "rootAggregateCounter": 200
    },
    {
      "iD": 154,
      "statistics": {
        "leakedInformation": 1.6055304172951228,
        "receivedInformation": 4.18526440879382,
        "inbox": 9,
        "outbox": 11
      },
      "rootAggregateID": "70198c0866e442eade64bcf9cb3d6c30b36c3d7f",
      "rootAggregateCounter": 200
    },
    {
      "iD": 155,
      "statistics": {
        "leakedInformation": 2.072105672105672,
        "receivedInformation": 2.9144453585630057,
        "inbox": 8,
        "outbox": 10
      },
      "rootAggregateID": "70198c0866e442eade64bcf9cb3d6c30b36c3d7f",
      "rootAggregateCounter": 200
    },
    {
      "iD": 156,
      "statistics": {
        "leakedInformation": 3.6588983050847457,
        "receivedInformation": 0.8266896502190619,
        "inbox": 7,
        "outbox": 8
      },
      "rootAggregateID": "70198c0866e442eade64bcf9cb3d6c30b36c3d7f",
      "rootAggregateCounter": 200
    },
    {
      "iD": 157,
      "statistics": {
        "leakedInformation": 1.7158738837251686,
        "receivedInformation": 1.8016896502190618,
        "inbox": 8,
        "outbox": 7
      },
      "rootAggregateID": "70198c0866e442eade64bcf9cb3d6c30b36c3d7f",
      "rootAggregateCounter": 200
    },
    {
      "iD": 158,
      "statistics": {
        "leakedInformation": 3.0308823529411764,
        "receivedInformation": 2.156006391599612,
        "inbox": 8,
        "outbox": 10
      },
      "rootAggregateID": "70198c0866e442eade64bcf9cb3d6c30b36c3d7f",
      "rootAggregateCounter": 200
    },
    {
      "iD": 159,
      "statistics": {
        "leakedInformation": 1.6419491525423728,
        "receivedInformation": 1.9933563168857287,
        "inbox": 8,
        "outbox": 4
      },
      "rootAggregateID": "70198c0866e442eade64bcf9cb3d6c30b36c3d7f",
      "rootAggregateCounter": 200
    },
    {
      "iD": 160,
      "statistics": {
        "leakedInformation": 1.8433691756272401,
        "receivedInformation": 3.018065268065268,
        "inbox": 9,
        "outbox": 5
      },
      "rootAggregateID": "70198c0866e442eade64bcf9cb3d6c30b36c3d7f",
      "rootAggregateCounter": 200
    },
    {
      "iD": 161,
      "statistics": {
        "leakedInformation": 2.61025641025641,
        "receivedInformation": 3.1153000594177067,
        "inbox": 9,
        "outbox": 11
      },
      "rootAggregateID": "70198c0866e442eade64bcf9cb3d6c30b36c3d7f",
      "rootAggregateCounter": 200
    },
    {
      "iD": 162,
      "statistics": {
        "leakedInformation": 1.1367521367521367,
        "receivedInformation": 4.198633392751039,
        "inbox": 10,
        "outbox": 4
      },
      "rootAggregateID": "70198c0866e442eade64bcf9cb3d6c30b36c3d7f",
      "rootAggregateCounter": 200
    },
    {
      "iD": 163,
      "statistics": {
        "leakedInformation": 2.502230537823759,
        "receivedInformation": 2.098233429020905,
        "inbox": 8,
        "outbox": 9
      },
      "rootAggregateID": "70198c0866e442eade64bcf9cb3d6c30b36c3d7f",
      "rootAggregateCounter": 200
    },
    {
      "iD": 164,
      "statistics": {
        "leakedInformation": 2.2429193899782134,
        "receivedInformation": 2.895917406510627,
        "inbox": 9,
        "outbox": 7
      },
      "rootAggregateID": "70198c0866e442eade64bcf9cb3d6c30b36c3d7f",
      "rootAggregateCounter": 200
    },
    {
      "iD": 165,
      "statistics": {
        "leakedInformation": 1.7065956171888375,
        "receivedInformation": 1.9933563168857287,
        "inbox": 8,
        "outbox": 7
      },
      "rootAggregateID": "70198c0866e442eade64bcf9cb3d6c30b36c3d7f",
      "rootAggregateCounter": 200
    },
    {
      "iD": 166,
      "statistics": {
        "leakedInformation": 2.9499999999999997,
        "receivedInformation": 2.691989999248064,
        "inbox": 8,
        "outbox": 11
      },
      "rootAggregateID": "70198c0866e442eade64bcf9cb3d6c30b36c3d7f",
      "rootAggregateCounter": 200
    },
    {
      "iD": 167,
      "statistics": {
        "leakedInformation": 2.1990691225985346,
        "receivedInformation": 3.2952171263985814,
        "inbox": 8,
        "outbox": 10
      },
      "rootAggregateID": "70198c0866e442eade64bcf9cb3d6c30b36c3d7f",
      "rootAggregateCounter": 200
    },
    {
      "iD": 168,
      "statistics": {
        "leakedInformation": 2.624242424242424,
        "receivedInformation": 2.674823868941516,
        "inbox": 8,
        "outbox": 10
      },
      "rootAggregateID": "70198c0866e442eade64bcf9cb3d6c30b36c3d7f",
      "rootAggregateCounter": 200
    },
    {
      "iD": 169,
      "statistics": {
        "leakedInformation": 2.4657586763518964,
        "receivedInformation": 3.532757238544715,
        "inbox": 9,
        "outbox": 12
      },
      "rootAggregateID": "70198c0866e442eade64bcf9cb3d6c30b36c3d7f",
      "rootAggregateCounter": 200
    },
    {
      "iD": 170,
      "statistics": {
        "leakedInformation": 1.8777777777777775,
        "receivedInformation": 3.8040301803459697,
        "inbox": 9,
        "outbox": 9
      },
      "rootAggregateID": "70198c0866e442eade64bcf9cb3d6c30b36c3d7f",
      "rootAggregateCounter": 200
    },
    {
      "iD": 171,
      "statistics": {
        "leakedInformation": 1.9725490196078432,
        "receivedInformation": 2.675353710946932,
        "inbox": 8,
        "outbox": 11
      },
      "rootAggregateID": "70198c0866e442eade64bcf9cb3d6c30b36c3d7f",
      "rootAggregateCounter": 200
    },
    {
      "iD": 172,
      "statistics": {
        "leakedInformation": 2.0413489736070383,
        "receivedInformation": 1.9933563168857287,
        "inbox": 8,
        "outbox": 5
      },
      "rootAggregateID": "70198c0866e442eade64bcf9cb3d6c30b36c3d7f",
      "rootAggregateCounter": 200
    },
    {
      "iD": 173,
      "statistics": {
        "leakedInformation": 1.8007575757575758,
        "receivedInformation": 2.7393397249329454,
        "inbox": 9,
        "outbox": 5
      },
      "rootAggregateID": "70198c0866e442eade64bcf9cb3d6c30b36c3d7f",
      "rootAggregateCounter": 200
    },
    {
      "iD": 174,
      "statistics": {
        "leakedInformation": 1.0526634382566586,
        "receivedInformation": 3.129643685431162,
        "inbox": 9,
        "outbox": 3
      },
      "rootAggregateID": "70198c0866e442eade64bcf9cb3d6c30b36c3d7f",
      "rootAggregateCounter": 200
    },
    {
      "iD": 175,
      "statistics": {
        "leakedInformation": 2.7285304020598145,
        "receivedInformation": 2.378550459731915,
        "inbox": 8,
        "outbox": 12
      },
      "rootAggregateID": "70198c0866e442eade64bcf9cb3d6c30b36c3d7f",
      "rootAggregateCounter": 200
    },
    {
      "iD": 176,
      "statistics": {
        "leakedInformation": 2.050282485875706,
        "receivedInformation": 4.468356316885728,
        "inbox": 10,
        "outbox": 5
      },
      "rootAggregateID": "70198c0866e442eade64bcf9cb3d6c30b36c3d7f",
      "rootAggregateCounter": 200
    },
    {
      "iD": 177,
      "statistics": {
        "leakedInformation": 2.7808028342473396,
        "receivedInformation": 2.9683563168857288,
        "inbox": 9,
        "outbox": 11
      },
      "rootAggregateID": "70198c0866e442eade64bcf9cb3d6c30b36c3d7f",
      "rootAggregateCounter": 200
    },
    {
      "iD": 178,
      "statistics": {
        "leakedInformation": 1.7833505331957344,
        "receivedInformation": 4.029176379176379,
        "inbox": 10,
        "outbox": 7
      },
      "rootAggregateID": "70198c0866e442eade64bcf9cb3d6c30b36c3d7f",
      "rootAggregateCounter": 200
    },
    {
      "iD": 179,
      "statistics": {
        "leakedInformation": 2.3483516483516484,
        "receivedInformation": 3.129643685431162,
        "inbox": 9,
        "outbox": 7
      },
      "rootAggregateID": "70198c0866e442eade64bcf9cb3d6c30b36c3d7f",
      "rootAggregateCounter": 200
    },
    {
      "iD": 180,
      "statistics": {
        "leakedInformation": 1.86471273824215,
        "receivedInformation": 2.7393397249329454,
        "inbox": 9,
        "outbox": 9
      },
      "rootAggregateID": "70198c0866e442eade64bcf9cb3d6c30b36c3d7f",
      "rootAggregateCounter": 200
    },
    {
      "iD": 181,
      "statistics": {
        "leakedInformation": 1.8833333333333333,
        "receivedInformation": 3.445843045843046,
        "inbox": 9,
        "outbox": 8
      },
      "rootAggregateID": "70198c0866e442eade64bcf9cb3d6c30b36c3d7f",
      "rootAggregateCounter": 200
    },
    {
      "iD": 182,
      "statistics": {
        "leakedInformation": 2.6223856209150322,
        "receivedInformation": 4.150323332581396,
        "inbox": 9,
        "outbox": 10
      },
      "rootAggregateID": "70198c0866e442eade64bcf9cb3d6c30b36c3d7f",
      "rootAggregateCounter": 200
    },
    {
      "iD": 183,
      "statistics": {
        "leakedInformation": 2.542523578116799,
        "receivedInformation": 1.488655462184874,
        "inbox": 7,
        "outbox": 10
      },
      "rootAggregateID": "70198c0866e442eade64bcf9cb3d6c30b36c3d7f",
      "rootAggregateCounter": 200
    },
    {
      "iD": 184,
      "statistics": {
        "leakedInformation": 2.1029411764705883,
        "receivedInformation": 1.1919899992480636,
        "inbox": 7,
        "outbox": 4
      },
      "rootAggregateID": "70198c0866e442eade64bcf9cb3d6c30b36c3d7f",
      "rootAggregateCounter": 200
    },
    {
      "iD": 185,
      "statistics": {
        "leakedInformation": 1.2862745098039217,
        "receivedInformation": 1.779176379176379,
        "inbox": 8,
        "outbox": 4
      },
      "rootAggregateID": "70198c0866e442eade64bcf9cb3d6c30b36c3d7f",
      "rootAggregateCounter": 200
    },
    {
      "iD": 186,
      "statistics": {
        "leakedInformation": 4.110516934046346,
        "receivedInformation": 0.5586870442802645,
        "inbox": 6,
        "outbox": 6
      },
      "rootAggregateID": "70198c0866e442eade64bcf9cb3d6c30b36c3d7f",
      "rootAggregateCounter": 200
    },
    {
      "iD": 187,
      "statistics": {
        "leakedInformation": 2.2435897435897436,
        "receivedInformation": 1.51484593837535,
        "inbox": 7,
        "outbox": 5
      },
      "rootAggregateID": "70198c0866e442eade64bcf9cb3d6c30b36c3d7f",
      "rootAggregateCounter": 200
    },
    {
      "iD": 188,
      "statistics": {
        "leakedInformation": 2.057667169431875,
        "receivedInformation": 4.0324866310160425,
        "inbox": 9,
        "outbox": 9
      },
      "rootAggregateID": "70198c0866e442eade64bcf9cb3d6c30b36c3d7f",
      "rootAggregateCounter": 200
    },
    {
      "iD": 189,
      "statistics": {
        "leakedInformation": 1.5222222222222221,
        "receivedInformation": 3.8040301803459697,
        "inbox": 9,
        "outbox": 4
      },
      "rootAggregateID": "70198c0866e442eade64bcf9cb3d6c30b36c3d7f",
      "rootAggregateCounter": 200
    },
    {
      "iD": 190,
      "statistics": {
        "leakedInformation": 2.5000000000000004,
        "receivedInformation": 2.8086870442802647,
        "inbox": 8,
        "outbox": 6
      },
      "rootAggregateID": "70198c0866e442eade64bcf9cb3d6c30b36c3d7f",
      "rootAggregateCounter": 200
    },
    {
      "iD": 191,
      "statistics": {
        "leakedInformation": 2.2435897435897436,
        "receivedInformation": 1.51484593837535,
        "inbox": 7,
        "outbox": 5
      },
      "rootAggregateID": "70198c0866e442eade64bcf9cb3d6c30b36c3d7f",
      "rootAggregateCounter": 200
    },
    {
      "iD": 192,
      "statistics": {
        "leakedInformation": 2.6023809523809525,
        "receivedInformation": 2.032757238544715,
        "inbox": 8,
        "outbox": 6
      },
      "rootAggregateID": "70198c0866e442eade64bcf9cb3d6c30b36c3d7f",
      "rootAggregateCounter": 200
    },
    {
      "iD": 193,
      "statistics": {
        "leakedInformation": 2.941666666666667,
        "receivedInformation": 2.032757238544715,
        "inbox": 8,
        "outbox": 7
      },
      "rootAggregateID": "70198c0866e442eade64bcf9cb3d6c30b36c3d7f",
      "rootAggregateCounter": 200
    },
    {
      "iD": 194,
      "statistics": {
        "leakedInformation": 1.7499999999999998,
        "receivedInformation": 2.637363513679303,
        "inbox": 8,
        "outbox": 4
      },
      "rootAggregateID": "70198c0866e442eade64bcf9cb3d6c30b36c3d7f",
      "rootAggregateCounter": 200
    },
    {
      "iD": 195,
      "statistics": {
        "leakedInformation": 7.125,
        "receivedInformation": 0.3281215516509634,
        "inbox": 5,
        "outbox": 8
      },
      "rootAggregateID": "70198c0866e442eade64bcf9cb3d6c30b36c3d7f",
      "rootAggregateCounter": 200
    },
    {
      "iD": 196,
      "statistics": {
        "leakedInformation": 2.364145658263305,
        "receivedInformation": 1.4697269303201508,
        "inbox": 7,
        "outbox": 7
      },
      "rootAggregateID": "70198c0866e442eade64bcf9cb3d6c30b36c3d7f",
      "rootAggregateCounter": 200
    },
    {
      "iD": 197,
      "statistics": {
        "leakedInformation": 2.7589605734767026,
        "receivedInformation": 1.9458430458430458,
        "inbox": 8,
        "outbox": 8
      },
      "rootAggregateID": "70198c0866e442eade64bcf9cb3d6c30b36c3d7f",
      "rootAggregateCounter": 200
    },
    {
      "iD": 198,
      "statistics": {
        "leakedInformation": 2,
        "receivedInformation": 3.240754796542273,
        "inbox": 8,
        "outbox": 4
      },
      "rootAggregateID": "70198c0866e442eade64bcf9cb3d6c30b36c3d7f",
      "rootAggregateCounter": 200
    },
    {
      "iD": 199,
      "statistics": {
        "leakedInformation": 1.1027728263022378,
        "receivedInformation": 3.2697269303201506,
        "inbox": 9,
        "outbox": 5
      },
      "rootAggregateID": "70198c0866e442eade64bcf9cb3d6c30b36c3d7f",
      "rootAggregateCounter": 200
    }
  ]
}
